(kicad_sch (version 20211123) (generator eeschema)

  (uuid ed247857-b2a3-4b23-90ad-758c01ae5e8e)

  (paper "A4")

  (lib_symbols
    (symbol "PCA9539BS_118:PCA9539BS,118" (pin_names (offset 1.016)) (in_bom yes) (on_board yes)
      (property "Reference" "U" (id 0) (at -4.9784 30.7848 0)
        (effects (font (size 1.27 1.27)) (justify left bottom))
      )
      (property "Value" "PCA9539BS,118" (id 1) (at -5.8674 -37.5666 0)
        (effects (font (size 1.27 1.27)) (justify left bottom))
      )
      (property "Footprint" "QFN50P400X400X100-25N" (id 2) (at 0 0 0)
        (effects (font (size 1.27 1.27)) (justify left bottom) hide)
      )
      (property "Datasheet" "" (id 3) (at 0 0 0)
        (effects (font (size 1.27 1.27)) (justify left bottom) hide)
      )
      (property "PACKAGE" "HVQFN-24" (id 4) (at 0 0 0)
        (effects (font (size 1.27 1.27)) (justify left bottom) hide)
      )
      (property "SUPPLIER" "NXP" (id 5) (at 0 0 0)
        (effects (font (size 1.27 1.27)) (justify left bottom) hide)
      )
      (property "OC_FARNELL" "-" (id 6) (at 0 0 0)
        (effects (font (size 1.27 1.27)) (justify left bottom) hide)
      )
      (property "OC_NEWARK" "70R6553" (id 7) (at 0 0 0)
        (effects (font (size 1.27 1.27)) (justify left bottom) hide)
      )
      (property "MPN" "PCA9539BS,118" (id 8) (at 0 0 0)
        (effects (font (size 1.27 1.27)) (justify left bottom) hide)
      )
      (property "ki_locked" "" (id 9) (at 0 0 0)
        (effects (font (size 1.27 1.27)))
      )
      (symbol "PCA9539BS,118_0_0"
        (rectangle (start -12.7 -33.02) (end 12.7 27.94)
          (stroke (width 0.4064) (type default) (color 0 0 0 0))
          (fill (type background))
        )
        (pin bidirectional line (at 17.78 -22.86 180) (length 5.08)
          (name "IO0_0" (effects (font (size 1.016 1.016))))
          (number "1" (effects (font (size 1.016 1.016))))
        )
        (pin bidirectional line (at 17.78 22.86 180) (length 5.08)
          (name "IO1_0" (effects (font (size 1.016 1.016))))
          (number "10" (effects (font (size 1.016 1.016))))
        )
        (pin bidirectional line (at 17.78 20.32 180) (length 5.08)
          (name "IO1_1" (effects (font (size 1.016 1.016))))
          (number "11" (effects (font (size 1.016 1.016))))
        )
        (pin bidirectional line (at 17.78 17.78 180) (length 5.08)
          (name "IO1_2" (effects (font (size 1.016 1.016))))
          (number "12" (effects (font (size 1.016 1.016))))
        )
        (pin bidirectional line (at 17.78 15.24 180) (length 5.08)
          (name "IO1_3" (effects (font (size 1.016 1.016))))
          (number "13" (effects (font (size 1.016 1.016))))
        )
        (pin bidirectional line (at 17.78 12.7 180) (length 5.08)
          (name "IO1_4" (effects (font (size 1.016 1.016))))
          (number "14" (effects (font (size 1.016 1.016))))
        )
        (pin bidirectional line (at 17.78 10.16 180) (length 5.08)
          (name "IO1_5" (effects (font (size 1.016 1.016))))
          (number "15" (effects (font (size 1.016 1.016))))
        )
        (pin bidirectional line (at 17.78 7.62 180) (length 5.08)
          (name "IO1_6" (effects (font (size 1.016 1.016))))
          (number "16" (effects (font (size 1.016 1.016))))
        )
        (pin bidirectional line (at 17.78 5.08 180) (length 5.08)
          (name "IO1_7" (effects (font (size 1.016 1.016))))
          (number "17" (effects (font (size 1.016 1.016))))
        )
        (pin input line (at -17.78 12.7 0) (length 5.08)
          (name "A0" (effects (font (size 1.016 1.016))))
          (number "18" (effects (font (size 1.016 1.016))))
        )
        (pin input line (at -17.78 -1.27 0) (length 5.08)
          (name "SCL" (effects (font (size 1.016 1.016))))
          (number "19" (effects (font (size 1.016 1.016))))
        )
        (pin bidirectional line (at 17.78 -20.32 180) (length 5.08)
          (name "IO0_1" (effects (font (size 1.016 1.016))))
          (number "2" (effects (font (size 1.016 1.016))))
        )
        (pin bidirectional line (at -17.78 -3.81 0) (length 5.08)
          (name "SDA" (effects (font (size 1.016 1.016))))
          (number "20" (effects (font (size 1.016 1.016))))
        )
        (pin power_in line (at -17.78 22.86 0) (length 5.08)
          (name "VDD" (effects (font (size 1.016 1.016))))
          (number "21" (effects (font (size 1.016 1.016))))
        )
        (pin output line (at 17.78 0 180) (length 5.08)
          (name "~{INT}" (effects (font (size 1.016 1.016))))
          (number "22" (effects (font (size 1.016 1.016))))
        )
        (pin input line (at -17.78 10.16 0) (length 5.08)
          (name "A1" (effects (font (size 1.016 1.016))))
          (number "23" (effects (font (size 1.016 1.016))))
        )
        (pin input line (at -17.78 20.32 0) (length 5.08)
          (name "~{RESET}" (effects (font (size 1.016 1.016))))
          (number "24" (effects (font (size 1.016 1.016))))
        )
        (pin passive line (at -17.78 -22.86 0) (length 5.08)
          (name "EP" (effects (font (size 1.016 1.016))))
          (number "25" (effects (font (size 1.016 1.016))))
        )
        (pin bidirectional line (at 17.78 -17.78 180) (length 5.08)
          (name "IO0_2" (effects (font (size 1.016 1.016))))
          (number "3" (effects (font (size 1.016 1.016))))
        )
        (pin bidirectional line (at 17.78 -15.24 180) (length 5.08)
          (name "IO0_3" (effects (font (size 1.016 1.016))))
          (number "4" (effects (font (size 1.016 1.016))))
        )
        (pin bidirectional line (at 17.78 -12.7 180) (length 5.08)
          (name "IO0_4" (effects (font (size 1.016 1.016))))
          (number "5" (effects (font (size 1.016 1.016))))
        )
        (pin bidirectional line (at 17.78 -10.16 180) (length 5.08)
          (name "IO0_5" (effects (font (size 1.016 1.016))))
          (number "6" (effects (font (size 1.016 1.016))))
        )
        (pin bidirectional line (at 17.78 -7.62 180) (length 5.08)
          (name "IO0_6" (effects (font (size 1.016 1.016))))
          (number "7" (effects (font (size 1.016 1.016))))
        )
        (pin bidirectional line (at 17.78 -5.08 180) (length 5.08)
          (name "IO0_7" (effects (font (size 1.016 1.016))))
          (number "8" (effects (font (size 1.016 1.016))))
        )
        (pin passive line (at -17.78 -27.94 0) (length 5.08)
          (name "VSS" (effects (font (size 1.016 1.016))))
          (number "9" (effects (font (size 1.016 1.016))))
        )
      )
    )
    (symbol "power:+3.3V" (power) (pin_names (offset 0)) (in_bom yes) (on_board yes)
      (property "Reference" "#PWR" (id 0) (at 0 -3.81 0)
        (effects (font (size 1.27 1.27)) hide)
      )
      (property "Value" "+3.3V" (id 1) (at 0 3.556 0)
        (effects (font (size 1.27 1.27)))
      )
      (property "Footprint" "" (id 2) (at 0 0 0)
        (effects (font (size 1.27 1.27)) hide)
      )
      (property "Datasheet" "" (id 3) (at 0 0 0)
        (effects (font (size 1.27 1.27)) hide)
      )
      (property "ki_keywords" "power-flag" (id 4) (at 0 0 0)
        (effects (font (size 1.27 1.27)) hide)
      )
      (property "ki_description" "Power symbol creates a global label with name \"+3.3V\"" (id 5) (at 0 0 0)
        (effects (font (size 1.27 1.27)) hide)
      )
      (symbol "+3.3V_0_1"
        (polyline
          (pts
            (xy -0.762 1.27)
            (xy 0 2.54)
          )
          (stroke (width 0) (type default) (color 0 0 0 0))
          (fill (type none))
        )
        (polyline
          (pts
            (xy 0 0)
            (xy 0 2.54)
          )
          (stroke (width 0) (type default) (color 0 0 0 0))
          (fill (type none))
        )
        (polyline
          (pts
            (xy 0 2.54)
            (xy 0.762 1.27)
          )
          (stroke (width 0) (type default) (color 0 0 0 0))
          (fill (type none))
        )
      )
      (symbol "+3.3V_1_1"
        (pin power_in line (at 0 0 90) (length 0) hide
          (name "+3V3" (effects (font (size 1.27 1.27))))
          (number "1" (effects (font (size 1.27 1.27))))
        )
      )
    )
    (symbol "power:GND" (power) (pin_names (offset 0)) (in_bom yes) (on_board yes)
      (property "Reference" "#PWR" (id 0) (at 0 -6.35 0)
        (effects (font (size 1.27 1.27)) hide)
      )
      (property "Value" "GND" (id 1) (at 0 -3.81 0)
        (effects (font (size 1.27 1.27)))
      )
      (property "Footprint" "" (id 2) (at 0 0 0)
        (effects (font (size 1.27 1.27)) hide)
      )
      (property "Datasheet" "" (id 3) (at 0 0 0)
        (effects (font (size 1.27 1.27)) hide)
      )
      (property "ki_keywords" "power-flag" (id 4) (at 0 0 0)
        (effects (font (size 1.27 1.27)) hide)
      )
      (property "ki_description" "Power symbol creates a global label with name \"GND\" , ground" (id 5) (at 0 0 0)
        (effects (font (size 1.27 1.27)) hide)
      )
      (symbol "GND_0_1"
        (polyline
          (pts
            (xy 0 0)
            (xy 0 -1.27)
            (xy 1.27 -1.27)
            (xy 0 -2.54)
            (xy -1.27 -1.27)
            (xy 0 -1.27)
          )
          (stroke (width 0) (type default) (color 0 0 0 0))
          (fill (type none))
        )
      )
      (symbol "GND_1_1"
        (pin power_in line (at 0 0 270) (length 0) hide
          (name "GND" (effects (font (size 1.27 1.27))))
          (number "1" (effects (font (size 1.27 1.27))))
        )
      )
    )
  )

  (junction (at 129.54 69.85) (diameter 0) (color 0 0 0 0)
    (uuid b1240f00-ec43-4c0b-9a41-43264db8a893)
  )

  (wire (pts (xy 167.64 105.41) (xy 165.1 105.41))
    (stroke (width 0) (type default) (color 0 0 0 0))
    (uuid 25625d99-d45f-4b2f-9e62-009a122611f4)
  )
  (wire (pts (xy 129.54 68.58) (xy 129.54 69.85))
    (stroke (width 0) (type default) (color 0 0 0 0))
    (uuid 3e011a46-81bd-4ecd-b93e-57dffb1143e5)
  )
  (wire (pts (xy 167.64 77.47) (xy 165.1 77.47))
    (stroke (width 0) (type default) (color 0 0 0 0))
    (uuid 44e77d57-d16f-4723-a95f-1ac45276c458)
  )
  (wire (pts (xy 129.54 120.65) (xy 127 120.65))
    (stroke (width 0) (type default) (color 0 0 0 0))
    (uuid 61a18b62-4111-4a9d-8fca-04c4c6f90cc3)
  )
  (wire (pts (xy 127 120.65) (xy 127 121.92))
    (stroke (width 0) (type default) (color 0 0 0 0))
    (uuid 717b25a7-c9c2-4f6f-b744-a96113325c99)
  )
  (wire (pts (xy 127 93.98) (xy 129.54 93.98))
    (stroke (width 0) (type default) (color 0 0 0 0))
    (uuid 771cb5c1-62ba-4cca-999e-cdcbe417213c)
  )
  (wire (pts (xy 129.54 69.85) (xy 129.54 72.39))
    (stroke (width 0) (type default) (color 0 0 0 0))
    (uuid 9404ce4c-2ce6-4f88-8062-13577800d257)
  )
  (wire (pts (xy 129.54 82.55) (xy 129.54 83.82))
    (stroke (width 0) (type default) (color 0 0 0 0))
    (uuid b5d84bc0-4d9a-4d1d-a476-5c6b51309fca)
  )
  (wire (pts (xy 167.64 80.01) (xy 165.1 80.01))
    (stroke (width 0) (type default) (color 0 0 0 0))
    (uuid bcfbc157-43ce-49f7-bd18-6a9e2f2f30a3)
  )
  (wire (pts (xy 129.54 96.52) (xy 127 96.52))
    (stroke (width 0) (type default) (color 0 0 0 0))
    (uuid ee9a2826-2513-480e-a552-3d07af5bf8a5)
  )
  (wire (pts (xy 167.64 102.87) (xy 165.1 102.87))
    (stroke (width 0) (type default) (color 0 0 0 0))
    (uuid f931f973-5615-451c-bb04-9a02aede6e6f)
  )

  (hierarchical_label "SCL" (shape input) (at 127 93.98 180)
    (effects (font (size 1.27 1.27)) (justify right))
    (uuid 1d1a7683-c090-4798-9b40-7ed0d9f3ce3b)
  )
  (hierarchical_label "SDA" (shape input) (at 127 96.52 180)
    (effects (font (size 1.27 1.27)) (justify right))
    (uuid 3d70e675-48ae-4edd-b95d-3ca51e634018)
  )
  (hierarchical_label "Pyro2" (shape input) (at 167.64 102.87 0)
    (effects (font (size 1.27 1.27)) (justify left))
    (uuid 5626e5e1-59f4-4773-828e-16057ddc3518)
  )
  (hierarchical_label "Pyro1" (shape input) (at 167.64 105.41 0)
    (effects (font (size 1.27 1.27)) (justify left))
    (uuid 7700fef1-de5b-4197-be2d-18385e1e18f9)
  )
  (hierarchical_label "Led1" (shape input) (at 167.64 77.47 0)
    (effects (font (size 1.27 1.27)) (justify left))
    (uuid f2c43eeb-76da-49f4-b8e6-cd74ebb3190b)
  )
  (hierarchical_label "Led2" (shape input) (at 167.64 80.01 0)
    (effects (font (size 1.27 1.27)) (justify left))
    (uuid f87a4771-a0a7-489f-9d85-4574dbea71cc)
  )

  (symbol (lib_id "power:GND") (at 127 121.92 0)
    (in_bom yes) (on_board yes)
    (uuid 00000000-0000-0000-0000-000061264b89)
    (property "Reference" "#PWR074" (id 0) (at 127 128.27 0)
      (effects (font (size 1.27 1.27)) hide)
    )
    (property "Value" "GND" (id 1) (at 127.127 126.3142 0))
    (property "Footprint" "" (id 2) (at 127 121.92 0)
      (effects (font (size 1.27 1.27)) hide)
    )
    (property "Datasheet" "" (id 3) (at 127 121.92 0)
      (effects (font (size 1.27 1.27)) hide)
    )
    (pin "1" (uuid b287663f-61be-4819-9523-1331a964301e))
  )

  (symbol (lib_id "power:+3.3V") (at 129.54 68.58 0)
    (in_bom yes) (on_board yes)
    (uuid 00000000-0000-0000-0000-000061266d57)
    (property "Reference" "#PWR073" (id 0) (at 129.54 72.39 0)
      (effects (font (size 1.27 1.27)) hide)
    )
    (property "Value" "+3.3V" (id 1) (at 129.921 64.1858 0))
    (property "Footprint" "" (id 2) (at 129.54 68.58 0)
      (effects (font (size 1.27 1.27)) hide)
    )
    (property "Datasheet" "" (id 3) (at 129.54 68.58 0)
      (effects (font (size 1.27 1.27)) hide)
    )
    (pin "1" (uuid d5a4f460-551e-4e03-8767-8aaea22aa581))
  )

  (symbol (lib_id "power:GND") (at 129.54 80.01 180)
    (in_bom yes) (on_board yes)
    (uuid 00000000-0000-0000-0000-000061267e80)
    (property "Reference" "#PWR075" (id 0) (at 129.54 73.66 0)
      (effects (font (size 1.27 1.27)) hide)
    )
    (property "Value" "GND" (id 1) (at 129.413 75.6158 0))
    (property "Footprint" "" (id 2) (at 129.54 80.01 0)
      (effects (font (size 1.27 1.27)) hide)
    )
    (property "Datasheet" "" (id 3) (at 129.54 80.01 0)
      (effects (font (size 1.27 1.27)) hide)
    )
    (pin "1" (uuid 9d9006b1-c0da-4488-b6c4-3bf750600acd))
  )

  (symbol (lib_id "PCA9539BS_118:PCA9539BS,118") (at 147.32 92.71 0) (unit 1)
    (in_bom yes) (on_board yes)
    (uuid 00000000-0000-0000-0000-00006171a2f2)
    (property "Reference" "U10" (id 0) (at 147.32 60.452 0))
    (property "Value" "PCA9539BS,118" (id 1) (at 147.32 62.7634 0))
    (property "Footprint" "Package_DFN_QFN:QFN-24-1EP_4x4mm_P0.5mm_EP2.6x2.6mm" (id 2) (at 147.32 92.71 0)
      (effects (font (size 1.27 1.27)) (justify left bottom) hide)
    )
    (property "Datasheet" "" (id 3) (at 147.32 92.71 0)
      (effects (font (size 1.27 1.27)) (justify left bottom) hide)
    )
    (property "PACKAGE" "HVQFN-24" (id 4) (at 147.32 92.71 0)
      (effects (font (size 1.27 1.27)) (justify left bottom) hide)
    )
    (property "SUPPLIER" "NXP" (id 5) (at 147.32 92.71 0)
      (effects (font (size 1.27 1.27)) (justify left bottom) hide)
    )
    (property "OC_FARNELL" "-" (id 6) (at 147.32 92.71 0)
      (effects (font (size 1.27 1.27)) (justify left bottom) hide)
    )
    (property "OC_NEWARK" "70R6553" (id 7) (at 147.32 92.71 0)
      (effects (font (size 1.27 1.27)) (justify left bottom) hide)
    )
    (property "MPN" "PCA9539BS,118" (id 8) (at 147.32 92.71 0)
      (effects (font (size 1.27 1.27)) (justify left bottom) hide)
    )
    (pin "1" (uuid 34dc387e-dac9-4a41-9e18-d239c9fa5452))
    (pin "10" (uuid 35c84aff-3ab4-4a16-bac6-defdaf14049f))
    (pin "11" (uuid 675ab1d4-89e8-44dc-b9cc-81c516aa2872))
    (pin "12" (uuid e221acce-fe2f-4ce7-8405-28a3ae09c893))
    (pin "13" (uuid 55423824-ec03-43b4-98e1-53e95552abf0))
    (pin "14" (uuid cabc0945-de8f-4acf-8f7a-fdfdc2ee4d63))
    (pin "15" (uuid c2d57075-c921-4625-a7b1-b6a2172def6a))
    (pin "16" (uuid 966f15a9-5cde-4b9a-b900-d90d1c89f44c))
    (pin "17" (uuid 467dfc0a-e4f6-4dcb-ae46-054782f5a6ed))
    (pin "18" (uuid 16cd0113-3668-43f2-99ac-d7a188065ee1))
    (pin "19" (uuid 1395ee58-3720-4a9b-a691-65905f176689))
    (pin "2" (uuid 7b91d800-e54b-4baa-a4ce-2d130079c3b2))
    (pin "20" (uuid 0e9135c0-b4e1-4178-a116-e80ca62d2183))
    (pin "21" (uuid d48ee283-ea46-44fd-a2af-d72c5ac504c5))
    (pin "22" (uuid 692c4fc3-4c00-4874-bf9b-809816ab417f))
    (pin "23" (uuid 8af952e5-4f7c-4af5-a126-40d2603f89f9))
    (pin "24" (uuid 574824ab-91ba-41f7-92fb-189f8bb0891f))
    (pin "25" (uuid 22c319fd-f352-45a3-8516-1b9407d4e01d))
    (pin "3" (uuid 271a687d-6e40-45ad-a78d-7ba93ae31c78))
    (pin "4" (uuid 7ad537cf-dda4-4a2f-9bde-b5257107fc81))
    (pin "5" (uuid daa13f1b-36b7-4a22-8f52-39fbec364b66))
    (pin "6" (uuid c7ff73d3-f293-41ab-bad7-02b95ed6e695))
    (pin "7" (uuid b0664a2e-748f-4763-a739-4b12d1001546))
    (pin "8" (uuid 6ef7c715-50f9-4b9e-b1d3-73caa5558c90))
    (pin "9" (uuid 95e5f64e-c38a-42e7-9de6-c3a91a6dc2e5))
  )

  (symbol (lib_id "power:+3.3V") (at 129.54 83.82 180)
    (in_bom yes) (on_board yes)
    (uuid 00000000-0000-0000-0000-0000617c19dc)
    (property "Reference" "#PWR0102" (id 0) (at 129.54 80.01 0)
      (effects (font (size 1.27 1.27)) hide)
    )
    (property "Value" "+3.3V" (id 1) (at 129.159 88.2142 0))
    (property "Footprint" "" (id 2) (at 129.54 83.82 0)
      (effects (font (size 1.27 1.27)) hide)
    )
    (property "Datasheet" "" (id 3) (at 129.54 83.82 0)
      (effects (font (size 1.27 1.27)) hide)
    )
    (pin "1" (uuid 707f604a-7f3f-405f-8b89-2e17dbf94ec1))
  )
)
