EESchema Schematic File Version 4
EELAYER 30 0
EELAYER END
$Descr A4 11693 8268
encoding utf-8
Sheet 5 15
Title ""
Date ""
Rev ""
Comp ""
Comment1 ""
Comment2 ""
Comment3 ""
Comment4 ""
$EndDescr
$Comp
L roket-rescue:SI4202DY-T1-GE3-SI4202DY-T1-GE3 U3
U 1 1 609A766F
P 6800 3300
F 0 "U3" H 6800 3967 50  0000 C CNN
F 1 "SI4202DY-T1-GE3" H 6800 3876 50  0000 C CNN
F 2 "others:SI4202DY-T1-GE3" H 6800 3300 50  0001 L BNN
F 3 "" H 6800 3300 50  0001 L BNN
F 4 "A" H 6800 3300 50  0001 L BNN "PARTREV"
F 5 "Texas Instruments" H 6800 3300 50  0001 L BNN "MANUFACTURER"
F 6 "1.75mm" H 6800 3300 50  0001 L BNN "MAXIMUM_PACKAGE_HEIGHT"
F 7 "IPC-7351B" H 6800 3300 50  0001 L BNN "STANDARD"
	1    6800 3300
	1    0    0    -1  
$EndComp
$Comp
L Device:R_US R?
U 1 1 609A7675
P 7550 3600
AR Path="/609302C0/609A7675" Ref="R?"  Part="1" 
AR Path="/6093043F/609A7675" Ref="R15"  Part="1" 
F 0 "R15" H 7618 3646 50  0000 L CNN
F 1 "560K" H 7618 3555 50  0000 L CNN
F 2 "Resistor_SMD:R_0805_2012Metric" V 7590 3590 50  0001 C CNN
F 3 "~" H 7550 3600 50  0001 C CNN
	1    7550 3600
	1    0    0    -1  
$EndComp
$Comp
L Device:R_US R?
U 1 1 609A767B
P 7550 4050
AR Path="/609302C0/609A767B" Ref="R?"  Part="1" 
AR Path="/6093043F/609A767B" Ref="R17"  Part="1" 
F 0 "R17" H 7618 4096 50  0000 L CNN
F 1 "100K" H 7618 4005 50  0000 L CNN
F 2 "Resistor_SMD:R_0805_2012Metric" V 7590 4040 50  0001 C CNN
F 3 "~" H 7550 4050 50  0001 C CNN
	1    7550 4050
	1    0    0    -1  
$EndComp
$Comp
L Device:R_US R?
U 1 1 609A7681
P 7950 3150
AR Path="/609302C0/609A7681" Ref="R?"  Part="1" 
AR Path="/6093043F/609A7681" Ref="R14"  Part="1" 
F 0 "R14" H 8018 3196 50  0000 L CNN
F 1 "560K" H 8018 3105 50  0000 L CNN
F 2 "Resistor_SMD:R_0805_2012Metric" V 7990 3140 50  0001 C CNN
F 3 "~" H 7950 3150 50  0001 C CNN
	1    7950 3150
	1    0    0    -1  
$EndComp
$Comp
L Device:R_US R?
U 1 1 609A7687
P 7950 3600
AR Path="/609302C0/609A7687" Ref="R?"  Part="1" 
AR Path="/6093043F/609A7687" Ref="R16"  Part="1" 
F 0 "R16" H 8018 3646 50  0000 L CNN
F 1 "100K" H 8018 3555 50  0000 L CNN
F 2 "Resistor_SMD:R_0805_2012Metric" V 7990 3590 50  0001 C CNN
F 3 "~" H 7950 3600 50  0001 C CNN
	1    7950 3600
	1    0    0    -1  
$EndComp
$Comp
L Device:R_US R?
U 1 1 609A768D
P 6150 3850
AR Path="/609302C0/609A768D" Ref="R?"  Part="1" 
AR Path="/6093043F/609A768D" Ref="R8"  Part="1" 
F 0 "R8" H 6218 3896 50  0000 L CNN
F 1 "100K" H 6218 3805 50  0000 L CNN
F 2 "Resistor_SMD:R_0805_2012Metric" V 6190 3840 50  0001 C CNN
F 3 "~" H 6150 3850 50  0001 C CNN
	1    6150 3850
	1    0    0    -1  
$EndComp
Wire Wire Line
	7550 3750 7550 3850
Wire Wire Line
	7300 3000 7950 3000
Wire Wire Line
	7950 3300 7950 3350
$Comp
L power:GND #PWR034
U 1 1 609A76B2
P 7550 4250
F 0 "#PWR034" H 7550 4000 50  0001 C CNN
F 1 "GND" H 7555 4077 50  0000 C CNN
F 2 "" H 7550 4250 50  0001 C CNN
F 3 "" H 7550 4250 50  0001 C CNN
	1    7550 4250
	1    0    0    -1  
$EndComp
$Comp
L power:GND #PWR033
U 1 1 609A76B8
P 7950 3850
F 0 "#PWR033" H 7950 3600 50  0001 C CNN
F 1 "GND" H 7955 3677 50  0000 C CNN
F 2 "" H 7950 3850 50  0001 C CNN
F 3 "" H 7950 3850 50  0001 C CNN
	1    7950 3850
	1    0    0    -1  
$EndComp
$Comp
L power:GND #PWR031
U 1 1 609A76C4
P 6250 3000
F 0 "#PWR031" H 6250 2750 50  0001 C CNN
F 1 "GND" H 6255 2827 50  0000 C CNN
F 2 "" H 6250 3000 50  0001 C CNN
F 3 "" H 6250 3000 50  0001 C CNN
	1    6250 3000
	1    0    0    -1  
$EndComp
$Comp
L power:GND #PWR032
U 1 1 609A76D0
P 6250 3400
F 0 "#PWR032" H 6250 3150 50  0001 C CNN
F 1 "GND" H 6255 3227 50  0000 C CNN
F 2 "" H 6250 3400 50  0001 C CNN
F 3 "" H 6250 3400 50  0001 C CNN
	1    6250 3400
	1    0    0    -1  
$EndComp
Wire Wire Line
	7550 4200 7550 4250
Wire Wire Line
	7950 3750 7950 3850
Wire Wire Line
	6300 3000 6250 3000
Text HLabel 7900 3350 0    50   Input ~ 0
P2_Oku
Text HLabel 7500 3850 0    50   Input ~ 0
P1_Oku
Wire Wire Line
	7550 3850 7500 3850
Connection ~ 7550 3850
Wire Wire Line
	7550 3850 7550 3900
Wire Wire Line
	7950 3350 7900 3350
Connection ~ 7950 3350
Wire Wire Line
	7950 3350 7950 3450
Wire Wire Line
	7300 3400 7550 3400
Wire Wire Line
	7550 3400 7550 3450
Text Label 7350 3400 0    50   ~ 0
Pyro1
Text Label 7350 3000 0    50   ~ 0
Pyro2
Wire Wire Line
	6300 3400 6250 3400
Text Label 4450 4050 2    50   ~ 0
Pyro2
Text Label 4450 3850 2    50   ~ 0
Pyro1
Wire Wire Line
	4200 4050 4450 4050
Wire Wire Line
	4200 3850 4450 3850
$Comp
L power:+BATT #PWR027
U 1 1 60B73C84
P 4500 3700
F 0 "#PWR027" H 4500 3550 50  0001 C CNN
F 1 "+BATT" H 4515 3873 50  0000 C CNN
F 2 "" H 4500 3700 50  0001 C CNN
F 3 "" H 4500 3700 50  0001 C CNN
	1    4500 3700
	1    0    0    -1  
$EndComp
Wire Wire Line
	4500 3950 4200 3950
Wire Wire Line
	4500 3950 4500 3750
Connection ~ 4500 3950
Wire Wire Line
	4500 3750 4200 3750
$Comp
L 282834-6:282834-6 J2
U 1 1 60ABB1A9
P 3800 3950
F 0 "J2" H 3695 3480 50  0000 C CNN
F 1 "282834-6" H 3695 3571 50  0000 C CNN
F 2 "TerminalBlock_4Ucon:TerminalBlock_4Ucon_1x06_P3.50mm_Horizontal" H 3800 3950 50  0001 L BNN
F 3 "" H 3800 3950 50  0001 L BNN
F 4 "282834-6" H 3800 3950 50  0001 L BNN "Comment"
F 5 "Compliant with Exemptions" H 3800 3950 50  0001 L BNN "EU_RoHS_Compliance"
	1    3800 3950
	-1   0    0    1   
$EndComp
Wire Wire Line
	4200 4150 4500 4150
Wire Wire Line
	4500 3950 4500 4150
Wire Wire Line
	4500 3700 4500 3750
Connection ~ 4500 3750
$Comp
L power:GND #PWR028
U 1 1 60ACBBDF
P 4250 4300
F 0 "#PWR028" H 4250 4050 50  0001 C CNN
F 1 "GND" H 4255 4127 50  0000 C CNN
F 2 "" H 4250 4300 50  0001 C CNN
F 3 "" H 4250 4300 50  0001 C CNN
	1    4250 4300
	1    0    0    -1  
$EndComp
Wire Wire Line
	4200 4250 4250 4250
Wire Wire Line
	4250 4250 4250 4300
$Comp
L Device:R_US R?
U 1 1 6176D978
P 5950 2950
AR Path="/609302C0/6176D978" Ref="R?"  Part="1" 
AR Path="/6093043F/6176D978" Ref="R9"  Part="1" 
F 0 "R9" H 6018 2996 50  0000 L CNN
F 1 "2k" H 6018 2905 50  0000 L CNN
F 2 "Resistor_SMD:R_0805_2012Metric" V 5990 2940 50  0001 C CNN
F 3 "~" H 5950 2950 50  0001 C CNN
	1    5950 2950
	1    0    0    -1  
$EndComp
$Comp
L power:GND #PWR029
U 1 1 61770EAC
P 5400 2800
F 0 "#PWR029" H 5400 2550 50  0001 C CNN
F 1 "GND" H 5405 2627 50  0000 C CNN
F 2 "" H 5400 2800 50  0001 C CNN
F 3 "" H 5400 2800 50  0001 C CNN
	1    5400 2800
	1    0    0    -1  
$EndComp
Wire Wire Line
	5400 2750 5400 2800
Text HLabel 5350 3600 0    50   Input ~ 0
P1_Ates
Wire Wire Line
	5100 3200 5200 3200
Text HLabel 5100 3200 0    50   Input ~ 0
P2_Ates
$Comp
L Device:R_US R?
U 1 1 609A7693
P 5350 3200
AR Path="/609302C0/609A7693" Ref="R?"  Part="1" 
AR Path="/609304A1/609A7693" Ref="R?"  Part="1" 
AR Path="/6093043F/609A7693" Ref="R13"  Part="1" 
F 0 "R13" V 5418 3246 50  0000 L CNN
F 1 "1k" V 5418 3155 50  0000 R CNN
F 2 "Resistor_SMD:R_0805_2012Metric" V 5390 3190 50  0001 C CNN
F 3 "~" H 5350 3200 50  0001 C CNN
	1    5350 3200
	0    -1   -1   0   
$EndComp
$Comp
L Device:R_US R?
U 1 1 609A769F
P 5600 3600
AR Path="/609302C0/609A769F" Ref="R?"  Part="1" 
AR Path="/609304A1/609A769F" Ref="R?"  Part="1" 
AR Path="/6093043F/609A769F" Ref="R12"  Part="1" 
F 0 "R12" V 5668 3646 50  0000 L CNN
F 1 "100" V 5668 3555 50  0000 R CNN
F 2 "Resistor_SMD:R_0805_2012Metric" V 5640 3590 50  0001 C CNN
F 3 "~" H 5600 3600 50  0001 C CNN
	1    5600 3600
	0    -1   -1   0   
$EndComp
Wire Wire Line
	5950 2800 5950 2750
Wire Wire Line
	5950 3100 5950 3200
Connection ~ 5950 3200
Wire Wire Line
	5950 3200 6300 3200
Wire Wire Line
	6150 3600 6150 3700
Connection ~ 6150 3600
Wire Wire Line
	6150 3600 6300 3600
Wire Wire Line
	5450 3600 5350 3600
$Comp
L power:GND #PWR025
U 1 1 6170E0EB
P 6000 4100
F 0 "#PWR025" H 6000 3850 50  0001 C CNN
F 1 "GND" H 6005 3927 50  0000 C CNN
F 2 "" H 6000 4100 50  0001 C CNN
F 3 "" H 6000 4100 50  0001 C CNN
	1    6000 4100
	1    0    0    -1  
$EndComp
Wire Wire Line
	6150 4000 6150 4050
$Comp
L roket-rescue:Cap-805_cap C?
U 1 1 61A96966
P 5800 3800
AR Path="/609302C0/61A96966" Ref="C?"  Part="1" 
AR Path="/6093034B/61A96966" Ref="C?"  Part="1" 
AR Path="/6092FBF4/61A96966" Ref="C?"  Part="1" 
AR Path="/6093043F/61A96966" Ref="C26"  Part="1" 
F 0 "C26" V 5804 3903 50  0000 L CNN
F 1 "22uF" V 5895 3903 50  0000 L CNN
F 2 "Capacitor_SMD:C_0805_2012Metric" H 5800 3800 50  0001 L BNN
F 3 "" H 5800 3800 50  0001 L BNN
	1    5800 3800
	0    1    1    0   
$EndComp
$Comp
L roket-rescue:Cap-805_cap C?
U 1 1 61A97688
P 5600 2900
AR Path="/609302C0/61A97688" Ref="C?"  Part="1" 
AR Path="/6093034B/61A97688" Ref="C?"  Part="1" 
AR Path="/6092FBF4/61A97688" Ref="C?"  Part="1" 
AR Path="/6093043F/61A97688" Ref="C25"  Part="1" 
F 0 "C25" V 5604 3003 50  0000 L CNN
F 1 "22uF" V 5695 3003 50  0000 L CNN
F 2 "Capacitor_SMD:C_0805_2012Metric" H 5600 2900 50  0001 L BNN
F 3 "" H 5600 2900 50  0001 L BNN
	1    5600 2900
	0    1    1    0   
$EndComp
Wire Wire Line
	5500 3200 5600 3200
Wire Wire Line
	5600 3100 5600 3200
Connection ~ 5600 3200
Wire Wire Line
	5600 3200 5950 3200
Wire Wire Line
	5400 2750 5600 2750
Wire Wire Line
	5600 2800 5600 2750
Connection ~ 5600 2750
Wire Wire Line
	5600 2750 5950 2750
Wire Wire Line
	5750 3600 5800 3600
Wire Wire Line
	5800 3600 5800 3700
Connection ~ 5800 3600
Wire Wire Line
	5800 3600 6150 3600
Wire Wire Line
	5800 4000 5800 4050
Wire Wire Line
	5800 4050 6000 4050
Wire Wire Line
	6000 4050 6000 4100
Connection ~ 6000 4050
Wire Wire Line
	6000 4050 6150 4050
$EndSCHEMATC
