(kicad_sch (version 20211123) (generator eeschema)

  (uuid e42fd0d4-9927-4308-81d9-4cca814c8ea9)

  (paper "A4")

  (lib_symbols
    (symbol "Device:LED" (pin_numbers hide) (pin_names (offset 1.016) hide) (in_bom yes) (on_board yes)
      (property "Reference" "D" (id 0) (at 0 2.54 0)
        (effects (font (size 1.27 1.27)))
      )
      (property "Value" "LED" (id 1) (at 0 -2.54 0)
        (effects (font (size 1.27 1.27)))
      )
      (property "Footprint" "" (id 2) (at 0 0 0)
        (effects (font (size 1.27 1.27)) hide)
      )
      (property "Datasheet" "~" (id 3) (at 0 0 0)
        (effects (font (size 1.27 1.27)) hide)
      )
      (property "ki_keywords" "LED diode" (id 4) (at 0 0 0)
        (effects (font (size 1.27 1.27)) hide)
      )
      (property "ki_description" "Light emitting diode" (id 5) (at 0 0 0)
        (effects (font (size 1.27 1.27)) hide)
      )
      (property "ki_fp_filters" "LED* LED_SMD:* LED_THT:*" (id 6) (at 0 0 0)
        (effects (font (size 1.27 1.27)) hide)
      )
      (symbol "LED_0_1"
        (polyline
          (pts
            (xy -1.27 -1.27)
            (xy -1.27 1.27)
          )
          (stroke (width 0.254) (type default) (color 0 0 0 0))
          (fill (type none))
        )
        (polyline
          (pts
            (xy -1.27 0)
            (xy 1.27 0)
          )
          (stroke (width 0) (type default) (color 0 0 0 0))
          (fill (type none))
        )
        (polyline
          (pts
            (xy 1.27 -1.27)
            (xy 1.27 1.27)
            (xy -1.27 0)
            (xy 1.27 -1.27)
          )
          (stroke (width 0.254) (type default) (color 0 0 0 0))
          (fill (type none))
        )
        (polyline
          (pts
            (xy -3.048 -0.762)
            (xy -4.572 -2.286)
            (xy -3.81 -2.286)
            (xy -4.572 -2.286)
            (xy -4.572 -1.524)
          )
          (stroke (width 0) (type default) (color 0 0 0 0))
          (fill (type none))
        )
        (polyline
          (pts
            (xy -1.778 -0.762)
            (xy -3.302 -2.286)
            (xy -2.54 -2.286)
            (xy -3.302 -2.286)
            (xy -3.302 -1.524)
          )
          (stroke (width 0) (type default) (color 0 0 0 0))
          (fill (type none))
        )
      )
      (symbol "LED_1_1"
        (pin passive line (at -3.81 0 0) (length 2.54)
          (name "K" (effects (font (size 1.27 1.27))))
          (number "1" (effects (font (size 1.27 1.27))))
        )
        (pin passive line (at 3.81 0 180) (length 2.54)
          (name "A" (effects (font (size 1.27 1.27))))
          (number "2" (effects (font (size 1.27 1.27))))
        )
      )
    )
    (symbol "Device:R_US" (pin_numbers hide) (pin_names (offset 0)) (in_bom yes) (on_board yes)
      (property "Reference" "R" (id 0) (at 2.54 0 90)
        (effects (font (size 1.27 1.27)))
      )
      (property "Value" "R_US" (id 1) (at -2.54 0 90)
        (effects (font (size 1.27 1.27)))
      )
      (property "Footprint" "" (id 2) (at 1.016 -0.254 90)
        (effects (font (size 1.27 1.27)) hide)
      )
      (property "Datasheet" "~" (id 3) (at 0 0 0)
        (effects (font (size 1.27 1.27)) hide)
      )
      (property "ki_keywords" "R res resistor" (id 4) (at 0 0 0)
        (effects (font (size 1.27 1.27)) hide)
      )
      (property "ki_description" "Resistor, US symbol" (id 5) (at 0 0 0)
        (effects (font (size 1.27 1.27)) hide)
      )
      (property "ki_fp_filters" "R_*" (id 6) (at 0 0 0)
        (effects (font (size 1.27 1.27)) hide)
      )
      (symbol "R_US_0_1"
        (polyline
          (pts
            (xy 0 -2.286)
            (xy 0 -2.54)
          )
          (stroke (width 0) (type default) (color 0 0 0 0))
          (fill (type none))
        )
        (polyline
          (pts
            (xy 0 2.286)
            (xy 0 2.54)
          )
          (stroke (width 0) (type default) (color 0 0 0 0))
          (fill (type none))
        )
        (polyline
          (pts
            (xy 0 -0.762)
            (xy 1.016 -1.143)
            (xy 0 -1.524)
            (xy -1.016 -1.905)
            (xy 0 -2.286)
          )
          (stroke (width 0) (type default) (color 0 0 0 0))
          (fill (type none))
        )
        (polyline
          (pts
            (xy 0 0.762)
            (xy 1.016 0.381)
            (xy 0 0)
            (xy -1.016 -0.381)
            (xy 0 -0.762)
          )
          (stroke (width 0) (type default) (color 0 0 0 0))
          (fill (type none))
        )
        (polyline
          (pts
            (xy 0 2.286)
            (xy 1.016 1.905)
            (xy 0 1.524)
            (xy -1.016 1.143)
            (xy 0 0.762)
          )
          (stroke (width 0) (type default) (color 0 0 0 0))
          (fill (type none))
        )
      )
      (symbol "R_US_1_1"
        (pin passive line (at 0 3.81 270) (length 1.27)
          (name "~" (effects (font (size 1.27 1.27))))
          (number "1" (effects (font (size 1.27 1.27))))
        )
        (pin passive line (at 0 -3.81 90) (length 1.27)
          (name "~" (effects (font (size 1.27 1.27))))
          (number "2" (effects (font (size 1.27 1.27))))
        )
      )
    )
    (symbol "TL1015AF160QG:TL1015AF160QG" (pin_names (offset 1.016) hide) (in_bom yes) (on_board yes)
      (property "Reference" "S" (id 0) (at -5.08 6.35 0)
        (effects (font (size 1.27 1.27)) (justify left bottom))
      )
      (property "Value" "TL1015AF160QG" (id 1) (at -5.08 -5.08 0)
        (effects (font (size 1.27 1.27)) (justify left bottom))
      )
      (property "Footprint" "SW_TL1015AF160QG" (id 2) (at 0 0 0)
        (effects (font (size 1.27 1.27)) (justify left bottom) hide)
      )
      (property "Datasheet" "" (id 3) (at 0 0 0)
        (effects (font (size 1.27 1.27)) (justify left bottom) hide)
      )
      (property "PARTREV" "F" (id 4) (at 0 0 0)
        (effects (font (size 1.27 1.27)) (justify left bottom) hide)
      )
      (property "MANUFACTURER" "E-Switch" (id 5) (at 0 0 0)
        (effects (font (size 1.27 1.27)) (justify left bottom) hide)
      )
      (property "MAXIMUM_PACKAGE_HEIGHT" "2.1 mm" (id 6) (at 0 0 0)
        (effects (font (size 1.27 1.27)) (justify left bottom) hide)
      )
      (property "STANDARD" "Manufacturer Recommendations" (id 7) (at 0 0 0)
        (effects (font (size 1.27 1.27)) (justify left bottom) hide)
      )
      (property "ki_locked" "" (id 8) (at 0 0 0)
        (effects (font (size 1.27 1.27)))
      )
      (symbol "TL1015AF160QG_0_0"
        (circle (center -2.54 0) (radius 0.254)
          (stroke (width 0.508) (type default) (color 0 0 0 0))
          (fill (type none))
        )
        (polyline
          (pts
            (xy -3.81 1.27)
            (xy 0 1.27)
          )
          (stroke (width 0.254) (type default) (color 0 0 0 0))
          (fill (type none))
        )
        (polyline
          (pts
            (xy 0 1.27)
            (xy 0 5.08)
          )
          (stroke (width 0.254) (type default) (color 0 0 0 0))
          (fill (type none))
        )
        (polyline
          (pts
            (xy 0 1.27)
            (xy 3.81 1.27)
          )
          (stroke (width 0.254) (type default) (color 0 0 0 0))
          (fill (type none))
        )
        (circle (center 2.54 0) (radius 0.254)
          (stroke (width 0.508) (type default) (color 0 0 0 0))
          (fill (type none))
        )
        (pin passive line (at -7.62 0 0) (length 5.08)
          (name "~" (effects (font (size 1.016 1.016))))
          (number "1" (effects (font (size 1.016 1.016))))
        )
        (pin passive line (at 7.62 0 180) (length 5.08)
          (name "~" (effects (font (size 1.016 1.016))))
          (number "2" (effects (font (size 1.016 1.016))))
        )
      )
    )
    (symbol "power:+3.3V" (power) (pin_names (offset 0)) (in_bom yes) (on_board yes)
      (property "Reference" "#PWR" (id 0) (at 0 -3.81 0)
        (effects (font (size 1.27 1.27)) hide)
      )
      (property "Value" "+3.3V" (id 1) (at 0 3.556 0)
        (effects (font (size 1.27 1.27)))
      )
      (property "Footprint" "" (id 2) (at 0 0 0)
        (effects (font (size 1.27 1.27)) hide)
      )
      (property "Datasheet" "" (id 3) (at 0 0 0)
        (effects (font (size 1.27 1.27)) hide)
      )
      (property "ki_keywords" "power-flag" (id 4) (at 0 0 0)
        (effects (font (size 1.27 1.27)) hide)
      )
      (property "ki_description" "Power symbol creates a global label with name \"+3.3V\"" (id 5) (at 0 0 0)
        (effects (font (size 1.27 1.27)) hide)
      )
      (symbol "+3.3V_0_1"
        (polyline
          (pts
            (xy -0.762 1.27)
            (xy 0 2.54)
          )
          (stroke (width 0) (type default) (color 0 0 0 0))
          (fill (type none))
        )
        (polyline
          (pts
            (xy 0 0)
            (xy 0 2.54)
          )
          (stroke (width 0) (type default) (color 0 0 0 0))
          (fill (type none))
        )
        (polyline
          (pts
            (xy 0 2.54)
            (xy 0.762 1.27)
          )
          (stroke (width 0) (type default) (color 0 0 0 0))
          (fill (type none))
        )
      )
      (symbol "+3.3V_1_1"
        (pin power_in line (at 0 0 90) (length 0) hide
          (name "+3V3" (effects (font (size 1.27 1.27))))
          (number "1" (effects (font (size 1.27 1.27))))
        )
      )
    )
    (symbol "power:GND" (power) (pin_names (offset 0)) (in_bom yes) (on_board yes)
      (property "Reference" "#PWR" (id 0) (at 0 -6.35 0)
        (effects (font (size 1.27 1.27)) hide)
      )
      (property "Value" "GND" (id 1) (at 0 -3.81 0)
        (effects (font (size 1.27 1.27)))
      )
      (property "Footprint" "" (id 2) (at 0 0 0)
        (effects (font (size 1.27 1.27)) hide)
      )
      (property "Datasheet" "" (id 3) (at 0 0 0)
        (effects (font (size 1.27 1.27)) hide)
      )
      (property "ki_keywords" "power-flag" (id 4) (at 0 0 0)
        (effects (font (size 1.27 1.27)) hide)
      )
      (property "ki_description" "Power symbol creates a global label with name \"GND\" , ground" (id 5) (at 0 0 0)
        (effects (font (size 1.27 1.27)) hide)
      )
      (symbol "GND_0_1"
        (polyline
          (pts
            (xy 0 0)
            (xy 0 -1.27)
            (xy 1.27 -1.27)
            (xy 0 -2.54)
            (xy -1.27 -1.27)
            (xy 0 -1.27)
          )
          (stroke (width 0) (type default) (color 0 0 0 0))
          (fill (type none))
        )
      )
      (symbol "GND_1_1"
        (pin power_in line (at 0 0 270) (length 0) hide
          (name "GND" (effects (font (size 1.27 1.27))))
          (number "1" (effects (font (size 1.27 1.27))))
        )
      )
    )
  )


  (wire (pts (xy 190.5 78.74) (xy 194.31 78.74))
    (stroke (width 0) (type default) (color 0 0 0 0))
    (uuid 18cf1537-83e6-4374-a277-6e3e21479ab0)
  )
  (wire (pts (xy 207.01 76.2) (xy 207.01 78.74))
    (stroke (width 0) (type default) (color 0 0 0 0))
    (uuid 1b5a32e4-0b8e-4f38-b679-71dc277c2087)
  )
  (wire (pts (xy 123.19 76.2) (xy 123.19 83.82))
    (stroke (width 0) (type default) (color 0 0 0 0))
    (uuid 2d4d8c24-5b38-445b-8733-2a81ba21d33e)
  )
  (wire (pts (xy 201.93 99.06) (xy 207.01 99.06))
    (stroke (width 0) (type default) (color 0 0 0 0))
    (uuid 2fb9964c-4cd4-4e81-b5e8-f78759d3adb5)
  )
  (wire (pts (xy 173.99 118.11) (xy 173.99 120.65))
    (stroke (width 0) (type default) (color 0 0 0 0))
    (uuid 414f80f7-b2d5-43c3-a018-819efe44fe30)
  )
  (wire (pts (xy 207.01 115.57) (xy 207.01 118.11))
    (stroke (width 0) (type default) (color 0 0 0 0))
    (uuid 494d4ce3-60c4-4021-8bd1-ab41a12b14ed)
  )
  (wire (pts (xy 201.93 118.11) (xy 207.01 118.11))
    (stroke (width 0) (type default) (color 0 0 0 0))
    (uuid 5a889284-4c9f-49be-8f02-e43e18550914)
  )
  (wire (pts (xy 123.19 76.2) (xy 125.73 76.2))
    (stroke (width 0) (type default) (color 0 0 0 0))
    (uuid 629fdb7a-7978-43d0-987e-b84465775826)
  )
  (wire (pts (xy 190.5 99.06) (xy 194.31 99.06))
    (stroke (width 0) (type default) (color 0 0 0 0))
    (uuid 8385d9f6-6997-423b-b38d-d0ab00c45f3f)
  )
  (wire (pts (xy 207.01 96.52) (xy 207.01 99.06))
    (stroke (width 0) (type default) (color 0 0 0 0))
    (uuid 84febc35-87fd-4cad-8e04-2b66390cfc12)
  )
  (wire (pts (xy 201.93 78.74) (xy 207.01 78.74))
    (stroke (width 0) (type default) (color 0 0 0 0))
    (uuid a6c7f556-10bb-4a6d-b61b-a732ec6fa5cc)
  )
  (wire (pts (xy 121.92 97.79) (xy 125.73 97.79))
    (stroke (width 0) (type default) (color 0 0 0 0))
    (uuid b4675fcd-90dd-499b-8feb-46b51a88378c)
  )
  (wire (pts (xy 140.97 97.79) (xy 147.32 97.79))
    (stroke (width 0) (type default) (color 0 0 0 0))
    (uuid c8072c34-0f81-4552-9fbe-4bfe60c53e21)
  )
  (wire (pts (xy 121.92 97.79) (xy 121.92 109.22))
    (stroke (width 0) (type default) (color 0 0 0 0))
    (uuid d53baa32-ba88-4646-9db3-0e9b0f0da4f0)
  )
  (wire (pts (xy 190.5 118.11) (xy 194.31 118.11))
    (stroke (width 0) (type default) (color 0 0 0 0))
    (uuid dc7523a5-4408-4a51-bc92-6a47a538c094)
  )
  (wire (pts (xy 140.97 76.2) (xy 147.32 76.2))
    (stroke (width 0) (type default) (color 0 0 0 0))
    (uuid df9a1242-2d73-4343-b170-237bc9a8080f)
  )
  (wire (pts (xy 173.99 99.06) (xy 182.88 99.06))
    (stroke (width 0) (type default) (color 0 0 0 0))
    (uuid e3c3d042-f4c5-4fb1-a6b8-52aa1c14cc0e)
  )
  (wire (pts (xy 173.99 118.11) (xy 182.88 118.11))
    (stroke (width 0) (type default) (color 0 0 0 0))
    (uuid eb7e294c-b398-413b-8b78-85a66ed5f3ea)
  )
  (wire (pts (xy 173.99 78.74) (xy 182.88 78.74))
    (stroke (width 0) (type default) (color 0 0 0 0))
    (uuid fec6f717-d723-4676-89ef-8ea691e209c2)
  )

  (hierarchical_label "Led1" (shape input) (at 207.01 76.2 90)
    (effects (font (size 1.27 1.27)) (justify left))
    (uuid 42bd0f96-a831-406e-abb7-03ed1bbd785f)
  )
  (hierarchical_label "IO0" (shape input) (at 147.32 76.2 0)
    (effects (font (size 1.27 1.27)) (justify left))
    (uuid 57543893-39bf-4d83-b4e0-8d020b4a6d48)
  )
  (hierarchical_label "Led2" (shape input) (at 207.01 96.52 90)
    (effects (font (size 1.27 1.27)) (justify left))
    (uuid 6742a066-6a5f-4185-90ae-b7fe8c6eda52)
  )
  (hierarchical_label "EN" (shape input) (at 147.32 97.79 0)
    (effects (font (size 1.27 1.27)) (justify left))
    (uuid 9c5933cf-1535-4465-90dd-da9b75afcdcf)
  )

  (symbol (lib_id "TL1015AF160QG:TL1015AF160QG") (at 133.35 76.2 0) (unit 1)
    (in_bom yes) (on_board yes)
    (uuid 00000000-0000-0000-0000-000060974072)
    (property "Reference" "S1" (id 0) (at 133.35 66.8782 0))
    (property "Value" "TL1015AF160QG" (id 1) (at 133.35 69.1896 0))
    (property "Footprint" "others:TL1015AF160QG" (id 2) (at 133.35 76.2 0)
      (effects (font (size 1.27 1.27)) (justify left bottom) hide)
    )
    (property "Datasheet" "" (id 3) (at 133.35 76.2 0)
      (effects (font (size 1.27 1.27)) (justify left bottom) hide)
    )
    (property "PARTREV" "F" (id 4) (at 133.35 76.2 0)
      (effects (font (size 1.27 1.27)) (justify left bottom) hide)
    )
    (property "MANUFACTURER" "E-Switch" (id 5) (at 133.35 76.2 0)
      (effects (font (size 1.27 1.27)) (justify left bottom) hide)
    )
    (property "MAXIMUM_PACKAGE_HEIGHT" "2.1 mm" (id 6) (at 133.35 76.2 0)
      (effects (font (size 1.27 1.27)) (justify left bottom) hide)
    )
    (property "STANDARD" "Manufacturer Recommendations" (id 7) (at 133.35 76.2 0)
      (effects (font (size 1.27 1.27)) (justify left bottom) hide)
    )
    (pin "1" (uuid 6116c06f-bd81-4247-be76-91adb314c832))
    (pin "2" (uuid fcbd6ea9-dcbb-48a1-8154-0322456dcd07))
  )

  (symbol (lib_id "TL1015AF160QG:TL1015AF160QG") (at 133.35 97.79 0) (unit 1)
    (in_bom yes) (on_board yes)
    (uuid 00000000-0000-0000-0000-0000609748f7)
    (property "Reference" "S2" (id 0) (at 133.35 88.4682 0))
    (property "Value" "TL1015AF160QG" (id 1) (at 133.35 90.7796 0))
    (property "Footprint" "others:TL1015AF160QG" (id 2) (at 133.35 97.79 0)
      (effects (font (size 1.27 1.27)) (justify left bottom) hide)
    )
    (property "Datasheet" "" (id 3) (at 133.35 97.79 0)
      (effects (font (size 1.27 1.27)) (justify left bottom) hide)
    )
    (property "PARTREV" "F" (id 4) (at 133.35 97.79 0)
      (effects (font (size 1.27 1.27)) (justify left bottom) hide)
    )
    (property "MANUFACTURER" "E-Switch" (id 5) (at 133.35 97.79 0)
      (effects (font (size 1.27 1.27)) (justify left bottom) hide)
    )
    (property "MAXIMUM_PACKAGE_HEIGHT" "2.1 mm" (id 6) (at 133.35 97.79 0)
      (effects (font (size 1.27 1.27)) (justify left bottom) hide)
    )
    (property "STANDARD" "Manufacturer Recommendations" (id 7) (at 133.35 97.79 0)
      (effects (font (size 1.27 1.27)) (justify left bottom) hide)
    )
    (pin "1" (uuid ae0e5093-e244-40f0-a299-94b8ffa3abe5))
    (pin "2" (uuid f67cfab7-8943-4f59-bbfb-0ab68a4d7c0d))
  )

  (symbol (lib_id "Device:R_US") (at 198.12 78.74 90) (unit 1)
    (in_bom yes) (on_board yes)
    (uuid 00000000-0000-0000-0000-00006097530f)
    (property "Reference" "R2" (id 0) (at 196.9516 77.0128 90)
      (effects (font (size 1.27 1.27)) (justify left))
    )
    (property "Value" "1K" (id 1) (at 199.263 77.0128 90)
      (effects (font (size 1.27 1.27)) (justify right))
    )
    (property "Footprint" "Resistor_SMD:R_0805_2012Metric" (id 2) (at 198.374 77.724 90)
      (effects (font (size 1.27 1.27)) hide)
    )
    (property "Datasheet" "~" (id 3) (at 198.12 78.74 0)
      (effects (font (size 1.27 1.27)) hide)
    )
    (pin "1" (uuid dc579a33-235a-407a-9dc8-697676a267b5))
    (pin "2" (uuid 6984ff1a-d50c-4d44-a774-955acf71d01f))
  )

  (symbol (lib_id "Device:LED") (at 186.69 78.74 0) (unit 1)
    (in_bom yes) (on_board yes)
    (uuid 00000000-0000-0000-0000-000060975cbe)
    (property "Reference" "D1" (id 0) (at 186.5122 85.217 0))
    (property "Value" "LED" (id 1) (at 186.5122 82.9056 0))
    (property "Footprint" "LED_SMD:LED_0805_2012Metric" (id 2) (at 186.69 78.74 0)
      (effects (font (size 1.27 1.27)) hide)
    )
    (property "Datasheet" "~" (id 3) (at 186.69 78.74 0)
      (effects (font (size 1.27 1.27)) hide)
    )
    (pin "1" (uuid 0360f3a4-b77b-4f16-a35b-4ae2b0fa38f0))
    (pin "2" (uuid b50d1137-0bfa-4160-9743-b16c0084eb0f))
  )

  (symbol (lib_id "power:GND") (at 121.92 109.22 0) (unit 1)
    (in_bom yes) (on_board yes)
    (uuid 00000000-0000-0000-0000-0000609797f4)
    (property "Reference" "#PWR02" (id 0) (at 121.92 115.57 0)
      (effects (font (size 1.27 1.27)) hide)
    )
    (property "Value" "GND" (id 1) (at 122.047 113.6142 0))
    (property "Footprint" "" (id 2) (at 121.92 109.22 0)
      (effects (font (size 1.27 1.27)) hide)
    )
    (property "Datasheet" "" (id 3) (at 121.92 109.22 0)
      (effects (font (size 1.27 1.27)) hide)
    )
    (pin "1" (uuid 84361b63-0e16-46cc-8b4b-3b69b4cf50f0))
  )

  (symbol (lib_id "power:GND") (at 123.19 83.82 0) (unit 1)
    (in_bom yes) (on_board yes)
    (uuid 00000000-0000-0000-0000-000060979ab3)
    (property "Reference" "#PWR03" (id 0) (at 123.19 90.17 0)
      (effects (font (size 1.27 1.27)) hide)
    )
    (property "Value" "GND" (id 1) (at 123.317 88.2142 0))
    (property "Footprint" "" (id 2) (at 123.19 83.82 0)
      (effects (font (size 1.27 1.27)) hide)
    )
    (property "Datasheet" "" (id 3) (at 123.19 83.82 0)
      (effects (font (size 1.27 1.27)) hide)
    )
    (pin "1" (uuid 3cf646a1-f4ce-429d-97ec-f3726b609f92))
  )

  (symbol (lib_id "Device:R_US") (at 198.12 99.06 90) (unit 1)
    (in_bom yes) (on_board yes)
    (uuid 00000000-0000-0000-0000-000061423046)
    (property "Reference" "R3" (id 0) (at 196.9516 97.3328 90)
      (effects (font (size 1.27 1.27)) (justify left))
    )
    (property "Value" "1K" (id 1) (at 199.263 97.3328 90)
      (effects (font (size 1.27 1.27)) (justify right))
    )
    (property "Footprint" "Resistor_SMD:R_0805_2012Metric" (id 2) (at 198.374 98.044 90)
      (effects (font (size 1.27 1.27)) hide)
    )
    (property "Datasheet" "~" (id 3) (at 198.12 99.06 0)
      (effects (font (size 1.27 1.27)) hide)
    )
    (pin "1" (uuid 0f9726cd-e7a7-48ba-a8a8-b999a75e9200))
    (pin "2" (uuid bc132226-2fe2-4c28-9c67-482abb7babf7))
  )

  (symbol (lib_id "Device:LED") (at 186.69 99.06 0) (unit 1)
    (in_bom yes) (on_board yes)
    (uuid 00000000-0000-0000-0000-00006142304c)
    (property "Reference" "D2" (id 0) (at 186.5122 105.537 0))
    (property "Value" "LED" (id 1) (at 186.5122 103.2256 0))
    (property "Footprint" "LED_SMD:LED_0805_2012Metric" (id 2) (at 186.69 99.06 0)
      (effects (font (size 1.27 1.27)) hide)
    )
    (property "Datasheet" "~" (id 3) (at 186.69 99.06 0)
      (effects (font (size 1.27 1.27)) hide)
    )
    (pin "1" (uuid 150d429e-0fc4-4330-ad63-4e82c6aa373c))
    (pin "2" (uuid a9b37091-59cd-4f01-b838-1ee88c6a1377))
  )

  (symbol (lib_id "power:GND") (at 173.99 120.65 0) (unit 1)
    (in_bom yes) (on_board yes)
    (uuid 00000000-0000-0000-0000-0000614239cf)
    (property "Reference" "#PWR06" (id 0) (at 173.99 127 0)
      (effects (font (size 1.27 1.27)) hide)
    )
    (property "Value" "GND" (id 1) (at 174.117 125.0442 0))
    (property "Footprint" "" (id 2) (at 173.99 120.65 0)
      (effects (font (size 1.27 1.27)) hide)
    )
    (property "Datasheet" "" (id 3) (at 173.99 120.65 0)
      (effects (font (size 1.27 1.27)) hide)
    )
    (pin "1" (uuid 7050fd35-40b9-48ac-857a-b23604ee0ce5))
  )

  (symbol (lib_id "Device:R_US") (at 198.12 118.11 90) (unit 1)
    (in_bom yes) (on_board yes)
    (uuid 00000000-0000-0000-0000-0000614239d5)
    (property "Reference" "R4" (id 0) (at 196.9516 116.3828 90)
      (effects (font (size 1.27 1.27)) (justify left))
    )
    (property "Value" "1K" (id 1) (at 199.263 116.3828 90)
      (effects (font (size 1.27 1.27)) (justify right))
    )
    (property "Footprint" "Resistor_SMD:R_0805_2012Metric" (id 2) (at 198.374 117.094 90)
      (effects (font (size 1.27 1.27)) hide)
    )
    (property "Datasheet" "~" (id 3) (at 198.12 118.11 0)
      (effects (font (size 1.27 1.27)) hide)
    )
    (pin "1" (uuid df84a571-e382-41c1-a82d-f33201aad382))
    (pin "2" (uuid 2452925e-132d-4992-9132-50bf6f6295a6))
  )

  (symbol (lib_id "Device:LED") (at 186.69 118.11 0) (unit 1)
    (in_bom yes) (on_board yes)
    (uuid 00000000-0000-0000-0000-0000614239db)
    (property "Reference" "D3" (id 0) (at 186.5122 124.587 0))
    (property "Value" "LED" (id 1) (at 186.5122 122.2756 0))
    (property "Footprint" "LED_SMD:LED_0805_2012Metric" (id 2) (at 186.69 118.11 0)
      (effects (font (size 1.27 1.27)) hide)
    )
    (property "Datasheet" "~" (id 3) (at 186.69 118.11 0)
      (effects (font (size 1.27 1.27)) hide)
    )
    (pin "1" (uuid 5c60cd16-3e15-4340-92ac-08eebdadea3d))
    (pin "2" (uuid 285e2ade-7710-471a-999f-78b00f01f469))
  )

  (symbol (lib_id "power:GND") (at 173.99 99.06 0) (unit 1)
    (in_bom yes) (on_board yes)
    (uuid 00000000-0000-0000-0000-0000617c3cdd)
    (property "Reference" "#PWR05" (id 0) (at 173.99 105.41 0)
      (effects (font (size 1.27 1.27)) hide)
    )
    (property "Value" "GND" (id 1) (at 174.117 103.4542 0))
    (property "Footprint" "" (id 2) (at 173.99 99.06 0)
      (effects (font (size 1.27 1.27)) hide)
    )
    (property "Datasheet" "" (id 3) (at 173.99 99.06 0)
      (effects (font (size 1.27 1.27)) hide)
    )
    (pin "1" (uuid e92f0391-f746-4eae-b7bb-bc71331aa33d))
  )

  (symbol (lib_id "power:GND") (at 173.99 78.74 0) (unit 1)
    (in_bom yes) (on_board yes)
    (uuid 00000000-0000-0000-0000-0000617c40b8)
    (property "Reference" "#PWR04" (id 0) (at 173.99 85.09 0)
      (effects (font (size 1.27 1.27)) hide)
    )
    (property "Value" "GND" (id 1) (at 174.117 83.1342 0))
    (property "Footprint" "" (id 2) (at 173.99 78.74 0)
      (effects (font (size 1.27 1.27)) hide)
    )
    (property "Datasheet" "" (id 3) (at 173.99 78.74 0)
      (effects (font (size 1.27 1.27)) hide)
    )
    (pin "1" (uuid 4f130b8f-267f-42da-9ae6-311af1268759))
  )

  (symbol (lib_id "power:+3.3V") (at 207.01 115.57 0) (unit 1)
    (in_bom yes) (on_board yes)
    (uuid ea2f98b7-8d05-446f-994d-27ca2b1098b2)
    (property "Reference" "#PWR07" (id 0) (at 207.01 119.38 0)
      (effects (font (size 1.27 1.27)) hide)
    )
    (property "Value" "+3.3V" (id 1) (at 207.391 111.1758 0))
    (property "Footprint" "" (id 2) (at 207.01 115.57 0)
      (effects (font (size 1.27 1.27)) hide)
    )
    (property "Datasheet" "" (id 3) (at 207.01 115.57 0)
      (effects (font (size 1.27 1.27)) hide)
    )
    (pin "1" (uuid 71840d44-a25c-4b81-850a-be68d0921519))
  )
)
