(kicad_sch (version 20211123) (generator eeschema)

  (uuid 4b042b6c-c042-4cf1-ba6e-bd77c51dbedb)

  (paper "A4")

  (lib_symbols
    (symbol "Device:R_US" (pin_numbers hide) (pin_names (offset 0)) (in_bom yes) (on_board yes)
      (property "Reference" "R" (id 0) (at 2.54 0 90)
        (effects (font (size 1.27 1.27)))
      )
      (property "Value" "R_US" (id 1) (at -2.54 0 90)
        (effects (font (size 1.27 1.27)))
      )
      (property "Footprint" "" (id 2) (at 1.016 -0.254 90)
        (effects (font (size 1.27 1.27)) hide)
      )
      (property "Datasheet" "~" (id 3) (at 0 0 0)
        (effects (font (size 1.27 1.27)) hide)
      )
      (property "ki_keywords" "R res resistor" (id 4) (at 0 0 0)
        (effects (font (size 1.27 1.27)) hide)
      )
      (property "ki_description" "Resistor, US symbol" (id 5) (at 0 0 0)
        (effects (font (size 1.27 1.27)) hide)
      )
      (property "ki_fp_filters" "R_*" (id 6) (at 0 0 0)
        (effects (font (size 1.27 1.27)) hide)
      )
      (symbol "R_US_0_1"
        (polyline
          (pts
            (xy 0 -2.286)
            (xy 0 -2.54)
          )
          (stroke (width 0) (type default) (color 0 0 0 0))
          (fill (type none))
        )
        (polyline
          (pts
            (xy 0 2.286)
            (xy 0 2.54)
          )
          (stroke (width 0) (type default) (color 0 0 0 0))
          (fill (type none))
        )
        (polyline
          (pts
            (xy 0 -0.762)
            (xy 1.016 -1.143)
            (xy 0 -1.524)
            (xy -1.016 -1.905)
            (xy 0 -2.286)
          )
          (stroke (width 0) (type default) (color 0 0 0 0))
          (fill (type none))
        )
        (polyline
          (pts
            (xy 0 0.762)
            (xy 1.016 0.381)
            (xy 0 0)
            (xy -1.016 -0.381)
            (xy 0 -0.762)
          )
          (stroke (width 0) (type default) (color 0 0 0 0))
          (fill (type none))
        )
        (polyline
          (pts
            (xy 0 2.286)
            (xy 1.016 1.905)
            (xy 0 1.524)
            (xy -1.016 1.143)
            (xy 0 0.762)
          )
          (stroke (width 0) (type default) (color 0 0 0 0))
          (fill (type none))
        )
      )
      (symbol "R_US_1_1"
        (pin passive line (at 0 3.81 270) (length 1.27)
          (name "~" (effects (font (size 1.27 1.27))))
          (number "1" (effects (font (size 1.27 1.27))))
        )
        (pin passive line (at 0 -3.81 90) (length 1.27)
          (name "~" (effects (font (size 1.27 1.27))))
          (number "2" (effects (font (size 1.27 1.27))))
        )
      )
    )
    (symbol "dk_Diodes-Rectifiers-Single:SS14" (pin_names (offset 1.016)) (in_bom yes) (on_board yes)
      (property "Reference" "D" (id 0) (at 1.27 2.54 0)
        (effects (font (size 1.27 1.27)))
      )
      (property "Value" "SS14" (id 1) (at 1.27 -2.54 0)
        (effects (font (size 1.27 1.27)))
      )
      (property "Footprint" "digikey-footprints:DO-214AC" (id 2) (at 5.08 5.08 0)
        (effects (font (size 1.524 1.524)) (justify left) hide)
      )
      (property "Datasheet" "https://www.onsemi.com/pub/Collateral/SS19-D.PDF" (id 3) (at 5.08 7.62 0)
        (effects (font (size 1.524 1.524)) (justify left) hide)
      )
      (property "Digi-Key_PN" "SS14CT-ND" (id 4) (at 5.08 10.16 0)
        (effects (font (size 1.524 1.524)) (justify left) hide)
      )
      (property "MPN" "SS14" (id 5) (at 5.08 12.7 0)
        (effects (font (size 1.524 1.524)) (justify left) hide)
      )
      (property "Category" "Discrete Semiconductor Products" (id 6) (at 5.08 15.24 0)
        (effects (font (size 1.524 1.524)) (justify left) hide)
      )
      (property "Family" "Diodes - Rectifiers - Single" (id 7) (at 5.08 17.78 0)
        (effects (font (size 1.524 1.524)) (justify left) hide)
      )
      (property "DK_Datasheet_Link" "https://www.onsemi.com/pub/Collateral/SS19-D.PDF" (id 8) (at 5.08 20.32 0)
        (effects (font (size 1.524 1.524)) (justify left) hide)
      )
      (property "DK_Detail_Page" "/product-detail/en/on-semiconductor/SS14/SS14CT-ND/965729" (id 9) (at 5.08 22.86 0)
        (effects (font (size 1.524 1.524)) (justify left) hide)
      )
      (property "Description" "DIODE SCHOTTKY 40V 1A SMA" (id 10) (at 5.08 25.4 0)
        (effects (font (size 1.524 1.524)) (justify left) hide)
      )
      (property "Manufacturer" "ON Semiconductor" (id 11) (at 5.08 27.94 0)
        (effects (font (size 1.524 1.524)) (justify left) hide)
      )
      (property "Status" "Active" (id 12) (at 5.08 30.48 0)
        (effects (font (size 1.524 1.524)) (justify left) hide)
      )
      (property "ki_keywords" "SS14CT-ND" (id 13) (at 0 0 0)
        (effects (font (size 1.27 1.27)) hide)
      )
      (property "ki_description" "DIODE SCHOTTKY 40V 1A SMA" (id 14) (at 0 0 0)
        (effects (font (size 1.27 1.27)) hide)
      )
      (symbol "SS14_0_1"
        (polyline
          (pts
            (xy 0 0)
            (xy 2.54 0)
          )
          (stroke (width 0) (type default) (color 0 0 0 0))
          (fill (type none))
        )
        (polyline
          (pts
            (xy 0 1.27)
            (xy 0 -1.27)
          )
          (stroke (width 0) (type default) (color 0 0 0 0))
          (fill (type none))
        )
        (polyline
          (pts
            (xy 2.54 1.27)
            (xy 2.54 -1.27)
            (xy 0 0)
            (xy 2.54 1.27)
          )
          (stroke (width 0) (type default) (color 0 0 0 0))
          (fill (type outline))
        )
      )
      (symbol "SS14_1_1"
        (pin passive line (at 5.08 0 180) (length 2.54)
          (name "~" (effects (font (size 1.27 1.27))))
          (number "A" (effects (font (size 1.27 1.27))))
        )
        (pin passive line (at -2.54 0 0) (length 2.54)
          (name "~" (effects (font (size 1.27 1.27))))
          (number "K" (effects (font (size 1.27 1.27))))
        )
      )
    )
    (symbol "power:+3.3V" (power) (pin_names (offset 0)) (in_bom yes) (on_board yes)
      (property "Reference" "#PWR" (id 0) (at 0 -3.81 0)
        (effects (font (size 1.27 1.27)) hide)
      )
      (property "Value" "+3.3V" (id 1) (at 0 3.556 0)
        (effects (font (size 1.27 1.27)))
      )
      (property "Footprint" "" (id 2) (at 0 0 0)
        (effects (font (size 1.27 1.27)) hide)
      )
      (property "Datasheet" "" (id 3) (at 0 0 0)
        (effects (font (size 1.27 1.27)) hide)
      )
      (property "ki_keywords" "power-flag" (id 4) (at 0 0 0)
        (effects (font (size 1.27 1.27)) hide)
      )
      (property "ki_description" "Power symbol creates a global label with name \"+3.3V\"" (id 5) (at 0 0 0)
        (effects (font (size 1.27 1.27)) hide)
      )
      (symbol "+3.3V_0_1"
        (polyline
          (pts
            (xy -0.762 1.27)
            (xy 0 2.54)
          )
          (stroke (width 0) (type default) (color 0 0 0 0))
          (fill (type none))
        )
        (polyline
          (pts
            (xy 0 0)
            (xy 0 2.54)
          )
          (stroke (width 0) (type default) (color 0 0 0 0))
          (fill (type none))
        )
        (polyline
          (pts
            (xy 0 2.54)
            (xy 0.762 1.27)
          )
          (stroke (width 0) (type default) (color 0 0 0 0))
          (fill (type none))
        )
      )
      (symbol "+3.3V_1_1"
        (pin power_in line (at 0 0 90) (length 0) hide
          (name "+3V3" (effects (font (size 1.27 1.27))))
          (number "1" (effects (font (size 1.27 1.27))))
        )
      )
    )
    (symbol "power:+BATT" (power) (pin_names (offset 0)) (in_bom yes) (on_board yes)
      (property "Reference" "#PWR" (id 0) (at 0 -3.81 0)
        (effects (font (size 1.27 1.27)) hide)
      )
      (property "Value" "+BATT" (id 1) (at 0 3.556 0)
        (effects (font (size 1.27 1.27)))
      )
      (property "Footprint" "" (id 2) (at 0 0 0)
        (effects (font (size 1.27 1.27)) hide)
      )
      (property "Datasheet" "" (id 3) (at 0 0 0)
        (effects (font (size 1.27 1.27)) hide)
      )
      (property "ki_keywords" "power-flag battery" (id 4) (at 0 0 0)
        (effects (font (size 1.27 1.27)) hide)
      )
      (property "ki_description" "Power symbol creates a global label with name \"+BATT\"" (id 5) (at 0 0 0)
        (effects (font (size 1.27 1.27)) hide)
      )
      (symbol "+BATT_0_1"
        (polyline
          (pts
            (xy -0.762 1.27)
            (xy 0 2.54)
          )
          (stroke (width 0) (type default) (color 0 0 0 0))
          (fill (type none))
        )
        (polyline
          (pts
            (xy 0 0)
            (xy 0 2.54)
          )
          (stroke (width 0) (type default) (color 0 0 0 0))
          (fill (type none))
        )
        (polyline
          (pts
            (xy 0 2.54)
            (xy 0.762 1.27)
          )
          (stroke (width 0) (type default) (color 0 0 0 0))
          (fill (type none))
        )
      )
      (symbol "+BATT_1_1"
        (pin power_in line (at 0 0 90) (length 0) hide
          (name "+BATT" (effects (font (size 1.27 1.27))))
          (number "1" (effects (font (size 1.27 1.27))))
        )
      )
    )
    (symbol "power:GND" (power) (pin_names (offset 0)) (in_bom yes) (on_board yes)
      (property "Reference" "#PWR" (id 0) (at 0 -6.35 0)
        (effects (font (size 1.27 1.27)) hide)
      )
      (property "Value" "GND" (id 1) (at 0 -3.81 0)
        (effects (font (size 1.27 1.27)))
      )
      (property "Footprint" "" (id 2) (at 0 0 0)
        (effects (font (size 1.27 1.27)) hide)
      )
      (property "Datasheet" "" (id 3) (at 0 0 0)
        (effects (font (size 1.27 1.27)) hide)
      )
      (property "ki_keywords" "power-flag" (id 4) (at 0 0 0)
        (effects (font (size 1.27 1.27)) hide)
      )
      (property "ki_description" "Power symbol creates a global label with name \"GND\" , ground" (id 5) (at 0 0 0)
        (effects (font (size 1.27 1.27)) hide)
      )
      (symbol "GND_0_1"
        (polyline
          (pts
            (xy 0 0)
            (xy 0 -1.27)
            (xy 1.27 -1.27)
            (xy 0 -2.54)
            (xy -1.27 -1.27)
            (xy 0 -1.27)
          )
          (stroke (width 0) (type default) (color 0 0 0 0))
          (fill (type none))
        )
      )
      (symbol "GND_1_1"
        (pin power_in line (at 0 0 270) (length 0) hide
          (name "GND" (effects (font (size 1.27 1.27))))
          (number "1" (effects (font (size 1.27 1.27))))
        )
      )
    )
    (symbol "power:VCC" (power) (pin_names (offset 0)) (in_bom yes) (on_board yes)
      (property "Reference" "#PWR" (id 0) (at 0 -3.81 0)
        (effects (font (size 1.27 1.27)) hide)
      )
      (property "Value" "VCC" (id 1) (at 0 3.81 0)
        (effects (font (size 1.27 1.27)))
      )
      (property "Footprint" "" (id 2) (at 0 0 0)
        (effects (font (size 1.27 1.27)) hide)
      )
      (property "Datasheet" "" (id 3) (at 0 0 0)
        (effects (font (size 1.27 1.27)) hide)
      )
      (property "ki_keywords" "power-flag" (id 4) (at 0 0 0)
        (effects (font (size 1.27 1.27)) hide)
      )
      (property "ki_description" "Power symbol creates a global label with name \"VCC\"" (id 5) (at 0 0 0)
        (effects (font (size 1.27 1.27)) hide)
      )
      (symbol "VCC_0_1"
        (polyline
          (pts
            (xy -0.762 1.27)
            (xy 0 2.54)
          )
          (stroke (width 0) (type default) (color 0 0 0 0))
          (fill (type none))
        )
        (polyline
          (pts
            (xy 0 0)
            (xy 0 2.54)
          )
          (stroke (width 0) (type default) (color 0 0 0 0))
          (fill (type none))
        )
        (polyline
          (pts
            (xy 0 2.54)
            (xy 0.762 1.27)
          )
          (stroke (width 0) (type default) (color 0 0 0 0))
          (fill (type none))
        )
      )
      (symbol "VCC_1_1"
        (pin power_in line (at 0 0 90) (length 0) hide
          (name "VCC" (effects (font (size 1.27 1.27))))
          (number "1" (effects (font (size 1.27 1.27))))
        )
      )
    )
    (symbol "roket-rescue:Cap-805_cap" (pin_names (offset 1.016) hide) (in_bom yes) (on_board yes)
      (property "Reference" "C" (id 0) (at 0 3.81 0)
        (effects (font (size 1.27 1.27)) (justify left bottom))
      )
      (property "Value" "Cap-805_cap" (id 1) (at 0 -5.08 0)
        (effects (font (size 1.27 1.27)) (justify left bottom))
      )
      (property "Footprint" "CAPC2012X135N" (id 2) (at 0 0 0)
        (effects (font (size 1.27 1.27)) (justify left bottom) hide)
      )
      (property "Datasheet" "" (id 3) (at 0 0 0)
        (effects (font (size 1.27 1.27)) (justify left bottom) hide)
      )
      (property "ki_locked" "" (id 4) (at 0 0 0)
        (effects (font (size 1.27 1.27)))
      )
      (symbol "Cap-805_cap_0_0"
        (rectangle (start 0 -1.905) (end 0.635 1.905)
          (stroke (width 0) (type default) (color 0 0 0 0))
          (fill (type outline))
        )
        (rectangle (start 1.905 -1.905) (end 2.54 1.905)
          (stroke (width 0) (type default) (color 0 0 0 0))
          (fill (type outline))
        )
        (pin passive line (at 5.08 0 180) (length 2.54)
          (name "~" (effects (font (size 1.016 1.016))))
          (number "1" (effects (font (size 1.016 1.016))))
        )
        (pin passive line (at -2.54 0 0) (length 2.54)
          (name "~" (effects (font (size 1.016 1.016))))
          (number "2" (effects (font (size 1.016 1.016))))
        )
      )
    )
    (symbol "roket-rescue:TPS630702RNMR-TPS63070RNMT" (pin_names (offset 1.016)) (in_bom yes) (on_board yes)
      (property "Reference" "U" (id 0) (at -12.7 16.2306 0)
        (effects (font (size 1.27 1.27)) (justify left bottom))
      )
      (property "Value" "TPS630702RNMR-TPS63070RNMT" (id 1) (at -12.7 -19.2278 0)
        (effects (font (size 1.27 1.27)) (justify left bottom))
      )
      (property "Footprint" "VREG_TPS630702RNMR" (id 2) (at 6.35 1.27 0)
        (effects (font (size 1.27 1.27)) (justify left bottom) hide)
      )
      (property "Datasheet" "" (id 3) (at 0 0 0)
        (effects (font (size 1.27 1.27)) (justify left bottom) hide)
      )
      (property "ki_locked" "" (id 4) (at 0 0 0)
        (effects (font (size 1.27 1.27)))
      )
      (symbol "TPS630702RNMR-TPS63070RNMT_0_0"
        (rectangle (start -12.7 -15.24) (end 12.7 15.24)
          (stroke (width 0.4064) (type default) (color 0 0 0 0))
          (fill (type background))
        )
        (pin input line (at -17.78 0 0) (length 5.08)
          (name "PS/SYNC" (effects (font (size 1.016 1.016))))
          (number "1" (effects (font (size 1.016 1.016))))
        )
        (pin power_in line (at 17.78 -10.16 180) (length 5.08)
          (name "PGND" (effects (font (size 1.016 1.016))))
          (number "10" (effects (font (size 1.016 1.016))))
        )
        (pin input line (at -17.78 12.7 0) (length 5.08)
          (name "L1" (effects (font (size 1.016 1.016))))
          (number "11" (effects (font (size 1.016 1.016))))
        )
        (pin input line (at -17.78 10.16 0) (length 5.08)
          (name "VIN" (effects (font (size 1.016 1.016))))
          (number "12_13" (effects (font (size 1.016 1.016))))
        )
        (pin input line (at -17.78 -2.54 0) (length 5.08)
          (name "EN" (effects (font (size 1.016 1.016))))
          (number "14" (effects (font (size 1.016 1.016))))
        )
        (pin input line (at 17.78 -5.08 180) (length 5.08)
          (name "VSEL" (effects (font (size 1.016 1.016))))
          (number "15" (effects (font (size 1.016 1.016))))
        )
        (pin output line (at 17.78 -2.54 180) (length 5.08)
          (name "PG" (effects (font (size 1.016 1.016))))
          (number "2" (effects (font (size 1.016 1.016))))
        )
        (pin output line (at -17.78 -12.7 0) (length 5.08)
          (name "VAUX" (effects (font (size 1.016 1.016))))
          (number "3" (effects (font (size 1.016 1.016))))
        )
        (pin power_in line (at 17.78 -12.7 180) (length 5.08)
          (name "GND" (effects (font (size 1.016 1.016))))
          (number "4" (effects (font (size 1.016 1.016))))
        )
        (pin input line (at 17.78 3.81 180) (length 5.08)
          (name "FB" (effects (font (size 1.016 1.016))))
          (number "5" (effects (font (size 1.016 1.016))))
        )
        (pin output line (at 17.78 -7.62 180) (length 5.08)
          (name "FB2" (effects (font (size 1.016 1.016))))
          (number "6" (effects (font (size 1.016 1.016))))
        )
        (pin output line (at 17.78 10.16 180) (length 5.08)
          (name "VOUT" (effects (font (size 1.016 1.016))))
          (number "7_8" (effects (font (size 1.016 1.016))))
        )
        (pin input line (at 17.78 12.7 180) (length 5.08)
          (name "L2" (effects (font (size 1.016 1.016))))
          (number "9" (effects (font (size 1.016 1.016))))
        )
      )
    )
    (symbol "roket-rescue:UWT1C331MNL1GS-CAPAE1030X1000N" (pin_numbers hide) (pin_names (offset 1.016) hide) (in_bom yes) (on_board yes)
      (property "Reference" "C" (id 0) (at -5.08 3.81 0)
        (effects (font (size 1.27 1.27)) (justify left bottom))
      )
      (property "Value" "UWT1C331MNL1GS-CAPAE1030X1000N" (id 1) (at -5.08 -5.08 0)
        (effects (font (size 1.27 1.27)) (justify left bottom))
      )
      (property "Footprint" "CAPAE830X1080N" (id 2) (at 0 0 0)
        (effects (font (size 1.27 1.27)) (justify left bottom) hide)
      )
      (property "Datasheet" "" (id 3) (at 0 0 0)
        (effects (font (size 1.27 1.27)) (justify left bottom) hide)
      )
      (property "MANUFACTURER" "Nichicon" (id 4) (at 0 0 0)
        (effects (font (size 1.27 1.27)) (justify left bottom) hide)
      )
      (property "STANDARD" "IPC-7351B" (id 5) (at 0 0 0)
        (effects (font (size 1.27 1.27)) (justify left bottom) hide)
      )
      (property "PARTREV" "CAT.8100H" (id 6) (at 0 0 0)
        (effects (font (size 1.27 1.27)) (justify left bottom) hide)
      )
      (property "MAXIMUM_PACKAGE_HEIGHT" "10.8mm" (id 7) (at 0 0 0)
        (effects (font (size 1.27 1.27)) (justify left bottom) hide)
      )
      (property "ki_locked" "" (id 8) (at 0 0 0)
        (effects (font (size 1.27 1.27)))
      )
      (symbol "UWT1C331MNL1GS-CAPAE1030X1000N_0_0"
        (rectangle (start -3.7084 -1.524) (end -2.8194 -1.397)
          (stroke (width 0) (type default) (color 0 0 0 0))
          (fill (type outline))
        )
        (rectangle (start -3.3274 -1.905) (end -3.2004 -1.016)
          (stroke (width 0) (type default) (color 0 0 0 0))
          (fill (type outline))
        )
        (arc (start -0.254 2.54) (mid -1.054 0) (end -0.254 -2.54)
          (stroke (width 0.254) (type default) (color 0 0 0 0))
          (fill (type none))
        )
        (polyline
          (pts
            (xy -5.08 0)
            (xy -2.032 0)
          )
          (stroke (width 0.254) (type default) (color 0 0 0 0))
          (fill (type none))
        )
        (polyline
          (pts
            (xy -2.032 2.54)
            (xy -2.032 -2.54)
          )
          (stroke (width 0.254) (type default) (color 0 0 0 0))
          (fill (type none))
        )
        (polyline
          (pts
            (xy -1.016 0)
            (xy 2.54 0)
          )
          (stroke (width 0.254) (type default) (color 0 0 0 0))
          (fill (type none))
        )
        (pin passive line (at -5.08 0 0) (length 0)
          (name "~" (effects (font (size 1.016 1.016))))
          (number "1" (effects (font (size 1.016 1.016))))
        )
        (pin passive line (at 2.54 0 180) (length 0)
          (name "~" (effects (font (size 1.016 1.016))))
          (number "2" (effects (font (size 1.016 1.016))))
        )
      )
    )
    (symbol "roket-rescue:XFL4020-102MEC-XFL4020-102MEC" (pin_numbers hide) (pin_names (offset 1.016) hide) (in_bom yes) (on_board yes)
      (property "Reference" "L" (id 0) (at -5.08 2.54 0)
        (effects (font (size 1.27 1.27)) (justify left bottom))
      )
      (property "Value" "XFL4020-102MEC-XFL4020-102MEC" (id 1) (at -5.08 -2.54 0)
        (effects (font (size 1.27 1.27)) (justify left bottom))
      )
      (property "Footprint" "IND_XFL4020-102MEC" (id 2) (at 0 0 0)
        (effects (font (size 1.27 1.27)) (justify left bottom) hide)
      )
      (property "Datasheet" "" (id 3) (at 0 0 0)
        (effects (font (size 1.27 1.27)) (justify left bottom) hide)
      )
      (property "DESCRIPTION" "Power inductor, shielded, 20% tol, SMT, RoHS, halogen free" (id 4) (at 0 0 0)
        (effects (font (size 1.27 1.27)) (justify left bottom) hide)
      )
      (property "MAXIMUM_PACKAGE_HEIGHT" "2.1mm" (id 5) (at 0 0 0)
        (effects (font (size 1.27 1.27)) (justify left bottom) hide)
      )
      (property "MANUFACTURER" "Coilcraft" (id 6) (at 0 0 0)
        (effects (font (size 1.27 1.27)) (justify left bottom) hide)
      )
      (property "PARTREV" "11/02/18" (id 7) (at 0 0 0)
        (effects (font (size 1.27 1.27)) (justify left bottom) hide)
      )
      (property "STANDARD" "Manufacturer Recommendations" (id 8) (at 0 0 0)
        (effects (font (size 1.27 1.27)) (justify left bottom) hide)
      )
      (property "ki_locked" "" (id 9) (at 0 0 0)
        (effects (font (size 1.27 1.27)))
      )
      (symbol "XFL4020-102MEC-XFL4020-102MEC_0_0"
        (arc (start -2.54 0) (mid -3.81 1.27) (end -5.08 0)
          (stroke (width 0.254) (type default) (color 0 0 0 0))
          (fill (type none))
        )
        (arc (start 0 0) (mid -1.27 1.27) (end -2.54 0)
          (stroke (width 0.254) (type default) (color 0 0 0 0))
          (fill (type none))
        )
        (polyline
          (pts
            (xy -5.08 0)
            (xy -7.62 0)
          )
          (stroke (width 0.254) (type default) (color 0 0 0 0))
          (fill (type none))
        )
        (polyline
          (pts
            (xy 5.08 0)
            (xy 7.62 0)
          )
          (stroke (width 0.254) (type default) (color 0 0 0 0))
          (fill (type none))
        )
        (arc (start 2.54 0) (mid 1.27 1.27) (end 0 0)
          (stroke (width 0.254) (type default) (color 0 0 0 0))
          (fill (type none))
        )
        (arc (start 5.08 0) (mid 3.81 1.27) (end 2.54 0)
          (stroke (width 0.254) (type default) (color 0 0 0 0))
          (fill (type none))
        )
        (pin passive line (at -12.7 0 0) (length 5.08)
          (name "~" (effects (font (size 1.016 1.016))))
          (number "1" (effects (font (size 1.016 1.016))))
        )
        (pin passive line (at 12.7 0 180) (length 5.08)
          (name "~" (effects (font (size 1.016 1.016))))
          (number "2" (effects (font (size 1.016 1.016))))
        )
      )
    )
  )

  (junction (at 107.95 57.15) (diameter 0) (color 0 0 0 0)
    (uuid 0e18138e-f1a3-4288-bb34-3b6bcfb64ff6)
  )
  (junction (at 116.84 69.85) (diameter 0) (color 0 0 0 0)
    (uuid 133d5403-9be3-4603-824b-d3b76147e745)
  )
  (junction (at 198.12 58.42) (diameter 0) (color 0 0 0 0)
    (uuid 4208e41d-1d0a-40b9-bf94-fcbeb6562f9d)
  )
  (junction (at 154.94 57.15) (diameter 0) (color 0 0 0 0)
    (uuid 47659b8a-0107-4f73-9291-69f35d11fed7)
  )
  (junction (at 33.02 60.96) (diameter 0) (color 0 0 0 0)
    (uuid 56bbedad-6259-4443-b321-0ffa1f89c336)
  )
  (junction (at 45.72 60.96) (diameter 0) (color 0 0 0 0)
    (uuid 59142adb-6887-41fc-851e-9a7f51511d60)
  )
  (junction (at 41.91 60.96) (diameter 0) (color 0 0 0 0)
    (uuid 5fc4054a-b929-433e-a947-747fb7ed003d)
  )
  (junction (at 93.98 83.82) (diameter 0) (color 0 0 0 0)
    (uuid 7684f860-395c-40b3-8cc0-a644dcdbc220)
  )
  (junction (at 45.72 69.85) (diameter 0) (color 0 0 0 0)
    (uuid a2ead14b-89a8-4438-a7df-7876de28e69a)
  )
  (junction (at 93.98 86.36) (diameter 0) (color 0 0 0 0)
    (uuid a9ff0621-eacb-4187-ba89-29f236eec881)
  )
  (junction (at 134.62 57.15) (diameter 0) (color 0 0 0 0)
    (uuid b7ed4c31-5417-4fb5-9261-7dca42c1c776)
  )
  (junction (at 246.38 57.15) (diameter 0) (color 0 0 0 0)
    (uuid cf45f134-35c0-4b31-91e7-048e45f34bf8)
  )
  (junction (at 93.98 81.28) (diameter 0) (color 0 0 0 0)
    (uuid e6cd2cdd-d49b-4491-8a15-4c46254b5c0a)
  )
  (junction (at 144.78 57.15) (diameter 0) (color 0 0 0 0)
    (uuid f58fca4c-73af-416f-b236-f3bb62b8fd00)
  )
  (junction (at 125.73 57.15) (diameter 0) (color 0 0 0 0)
    (uuid f7475c2a-e91e-435c-bec2-3307ef3e1f94)
  )
  (junction (at 116.84 57.15) (diameter 0) (color 0 0 0 0)
    (uuid fe1c93f4-4468-424b-a088-27aef08b62b4)
  )

  (wire (pts (xy 97.79 50.8) (xy 88.9 50.8))
    (stroke (width 0) (type default) (color 0 0 0 0))
    (uuid 052acc87-8ff9-4162-8f55-f7121d221d0a)
  )
  (wire (pts (xy 57.15 96.52) (xy 57.15 95.25))
    (stroke (width 0) (type default) (color 0 0 0 0))
    (uuid 0f3121ae-1081-4d81-b548-dceafa613e21)
  )
  (wire (pts (xy 33.02 60.96) (xy 33.02 59.69))
    (stroke (width 0) (type default) (color 0 0 0 0))
    (uuid 0fe3ebe2-61a9-477a-a657-d783c4c4d70e)
  )
  (wire (pts (xy 58.42 69.85) (xy 45.72 69.85))
    (stroke (width 0) (type default) (color 0 0 0 0))
    (uuid 1569382e-a4f5-4166-a19c-b78580f8c980)
  )
  (wire (pts (xy 116.84 57.15) (xy 107.95 57.15))
    (stroke (width 0) (type default) (color 0 0 0 0))
    (uuid 15a0f067-831a-4ddb-bdef-5fb7df267d8f)
  )
  (wire (pts (xy 107.95 57.15) (xy 101.6 57.15))
    (stroke (width 0) (type default) (color 0 0 0 0))
    (uuid 1ab4dceb-24cc-4050-aa74-e8fbb39d3760)
  )
  (wire (pts (xy 45.72 60.96) (xy 41.91 60.96))
    (stroke (width 0) (type default) (color 0 0 0 0))
    (uuid 25247d0c-5910-484b-9651-5750d422a450)
  )
  (wire (pts (xy 41.91 81.28) (xy 41.91 82.55))
    (stroke (width 0) (type default) (color 0 0 0 0))
    (uuid 2949af22-2432-469e-9f07-eee60be8acbd)
  )
  (wire (pts (xy 210.82 57.15) (xy 210.82 58.42))
    (stroke (width 0) (type default) (color 0 0 0 0))
    (uuid 296ded40-ed53-4798-8db4-dad7b794226b)
  )
  (wire (pts (xy 58.42 76.2) (xy 58.42 82.55))
    (stroke (width 0) (type default) (color 0 0 0 0))
    (uuid 356199c8-c0f7-4995-bef0-53ad752a30c5)
  )
  (wire (pts (xy 144.78 57.15) (xy 154.94 57.15))
    (stroke (width 0) (type default) (color 0 0 0 0))
    (uuid 3675ad1a-972f-4046-b23a-e6ca04304035)
  )
  (wire (pts (xy 154.94 54.61) (xy 154.94 57.15))
    (stroke (width 0) (type default) (color 0 0 0 0))
    (uuid 39510b14-314f-4608-9242-2eb5c6d33786)
  )
  (wire (pts (xy 41.91 60.96) (xy 41.91 73.66))
    (stroke (width 0) (type default) (color 0 0 0 0))
    (uuid 3997254a-8057-4464-ba07-e37f0720cbd8)
  )
  (wire (pts (xy 58.42 73.66) (xy 58.42 69.85))
    (stroke (width 0) (type default) (color 0 0 0 0))
    (uuid 4625ef31-ba9f-4b3e-8ebc-93b4658ad74a)
  )
  (wire (pts (xy 41.91 60.96) (xy 33.02 60.96))
    (stroke (width 0) (type default) (color 0 0 0 0))
    (uuid 4aee84d1-0859-48ac-a053-5a981ee1b24a)
  )
  (wire (pts (xy 93.98 69.85) (xy 116.84 69.85))
    (stroke (width 0) (type default) (color 0 0 0 0))
    (uuid 4fc3183f-297c-42b7-b3bd-25a9ea18c844)
  )
  (wire (pts (xy 54.61 50.8) (xy 54.61 60.96))
    (stroke (width 0) (type default) (color 0 0 0 0))
    (uuid 5160b3d5-0622-412f-84ed-9900be82a5a6)
  )
  (wire (pts (xy 52.07 63.5) (xy 52.07 60.96))
    (stroke (width 0) (type default) (color 0 0 0 0))
    (uuid 5b04e20f-8575-4362-b040-2e2133d670c8)
  )
  (wire (pts (xy 144.78 66.04) (xy 144.78 64.77))
    (stroke (width 0) (type default) (color 0 0 0 0))
    (uuid 5de5a872-aa15-495b-b53b-b8a64bbfa4f0)
  )
  (wire (pts (xy 198.12 72.39) (xy 198.12 69.85))
    (stroke (width 0) (type default) (color 0 0 0 0))
    (uuid 60d30b2f-02cb-42f2-b2ed-c84cb33e3e36)
  )
  (wire (pts (xy 200.66 58.42) (xy 198.12 58.42))
    (stroke (width 0) (type default) (color 0 0 0 0))
    (uuid 61fae217-e18a-4e68-8630-42cc06a8ba2f)
  )
  (wire (pts (xy 125.73 62.23) (xy 125.73 57.15))
    (stroke (width 0) (type default) (color 0 0 0 0))
    (uuid 644ebc55-9b92-49bd-8dfa-8a3a0dd8d76d)
  )
  (wire (pts (xy 134.62 66.04) (xy 134.62 64.77))
    (stroke (width 0) (type default) (color 0 0 0 0))
    (uuid 6579642b-a152-47f7-af0e-0d8866bdfcb8)
  )
  (wire (pts (xy 246.38 67.31) (xy 246.38 66.04))
    (stroke (width 0) (type default) (color 0 0 0 0))
    (uuid 66cc4ddc-a52d-4ad7-986e-68f000539802)
  )
  (wire (pts (xy 125.73 57.15) (xy 134.62 57.15))
    (stroke (width 0) (type default) (color 0 0 0 0))
    (uuid 6ae901e7-3f37-4fdc-9fbb-f82666744826)
  )
  (wire (pts (xy 101.6 57.15) (xy 101.6 63.5))
    (stroke (width 0) (type default) (color 0 0 0 0))
    (uuid 6f78c1fb-f693-4737-b750-74e50c35a564)
  )
  (wire (pts (xy 246.38 57.15) (xy 246.38 58.42))
    (stroke (width 0) (type default) (color 0 0 0 0))
    (uuid 741879e3-3045-40c7-849d-7f437c35ee91)
  )
  (wire (pts (xy 242.57 57.15) (xy 246.38 57.15))
    (stroke (width 0) (type default) (color 0 0 0 0))
    (uuid 7983b95c-14e4-4dec-ab4e-09c81071d9de)
  )
  (wire (pts (xy 246.38 48.26) (xy 246.38 45.72))
    (stroke (width 0) (type default) (color 0 0 0 0))
    (uuid 832b1e20-f118-4505-ad00-93c040f2f83d)
  )
  (wire (pts (xy 45.72 69.85) (xy 45.72 68.58))
    (stroke (width 0) (type default) (color 0 0 0 0))
    (uuid 85ec87eb-bb51-43f3-adf5-d04ca264762d)
  )
  (wire (pts (xy 107.95 76.2) (xy 107.95 86.36))
    (stroke (width 0) (type default) (color 0 0 0 0))
    (uuid 86f6faec-7eee-404c-a73a-2ae625f33d8c)
  )
  (wire (pts (xy 52.07 60.96) (xy 45.72 60.96))
    (stroke (width 0) (type default) (color 0 0 0 0))
    (uuid 8e715b73-353f-4cfc-aa33-1eac54b89b6c)
  )
  (wire (pts (xy 33.02 69.85) (xy 33.02 68.58))
    (stroke (width 0) (type default) (color 0 0 0 0))
    (uuid 8f8bb641-6f96-48dd-a2de-b7e2aaf6efe0)
  )
  (wire (pts (xy 107.95 86.36) (xy 125.73 86.36))
    (stroke (width 0) (type default) (color 0 0 0 0))
    (uuid 90337a8b-a8c5-48e1-ad0f-b0e67716fe3c)
  )
  (wire (pts (xy 198.12 58.42) (xy 198.12 57.15))
    (stroke (width 0) (type default) (color 0 0 0 0))
    (uuid 927b1eb6-e6f4-412f-9a58-8dc81a4889a0)
  )
  (wire (pts (xy 58.42 86.36) (xy 57.15 86.36))
    (stroke (width 0) (type default) (color 0 0 0 0))
    (uuid 92ec60c8-e914-4456-8d37-4b88fc0eb9c6)
  )
  (wire (pts (xy 116.84 69.85) (xy 116.84 71.12))
    (stroke (width 0) (type default) (color 0 0 0 0))
    (uuid 9b315454-a4a0-4952-bdbe-d4a8e96c16f9)
  )
  (wire (pts (xy 154.94 66.04) (xy 154.94 64.77))
    (stroke (width 0) (type default) (color 0 0 0 0))
    (uuid a16dbf15-8f5b-4766-b048-90ba89efcc02)
  )
  (wire (pts (xy 198.12 58.42) (xy 198.12 62.23))
    (stroke (width 0) (type default) (color 0 0 0 0))
    (uuid a6694369-d7a9-41d0-a88e-8a3c16982564)
  )
  (wire (pts (xy 93.98 83.82) (xy 93.98 86.36))
    (stroke (width 0) (type default) (color 0 0 0 0))
    (uuid acd72527-a657-482d-a530-89a1347375fc)
  )
  (wire (pts (xy 63.5 50.8) (xy 54.61 50.8))
    (stroke (width 0) (type default) (color 0 0 0 0))
    (uuid af7ed34f-31b5-4744-97e9-29e5f4d85343)
  )
  (wire (pts (xy 41.91 82.55) (xy 58.42 82.55))
    (stroke (width 0) (type default) (color 0 0 0 0))
    (uuid b6f041a4-3ea0-418b-94a2-50c938beafa2)
  )
  (wire (pts (xy 58.42 63.5) (xy 52.07 63.5))
    (stroke (width 0) (type default) (color 0 0 0 0))
    (uuid baa534a0-611b-4c48-8e86-5106dc852bd8)
  )
  (wire (pts (xy 134.62 57.15) (xy 144.78 57.15))
    (stroke (width 0) (type default) (color 0 0 0 0))
    (uuid bb5e8a0f-2ed5-4c2a-91b7-cb63c4c66e15)
  )
  (wire (pts (xy 101.6 63.5) (xy 93.98 63.5))
    (stroke (width 0) (type default) (color 0 0 0 0))
    (uuid bbb99edd-f016-43ea-b1c7-0bcdd1915ee8)
  )
  (wire (pts (xy 93.98 87.63) (xy 93.98 86.36))
    (stroke (width 0) (type default) (color 0 0 0 0))
    (uuid cb0f5a26-0827-4807-aea7-55b25947b9d5)
  )
  (wire (pts (xy 210.82 58.42) (xy 208.28 58.42))
    (stroke (width 0) (type default) (color 0 0 0 0))
    (uuid cce1404b-fc30-47cc-b852-e0061990f2bb)
  )
  (wire (pts (xy 116.84 80.01) (xy 116.84 78.74))
    (stroke (width 0) (type default) (color 0 0 0 0))
    (uuid cebfc912-6282-4a1e-923e-74c4961c2aad)
  )
  (wire (pts (xy 54.61 60.96) (xy 58.42 60.96))
    (stroke (width 0) (type default) (color 0 0 0 0))
    (uuid cfcae4a3-5d05-48fe-9a5f-9dcd4da4bd65)
  )
  (wire (pts (xy 125.73 57.15) (xy 116.84 57.15))
    (stroke (width 0) (type default) (color 0 0 0 0))
    (uuid cfec88d2-05ea-4320-9be6-2559d89ee700)
  )
  (wire (pts (xy 93.98 76.2) (xy 107.95 76.2))
    (stroke (width 0) (type default) (color 0 0 0 0))
    (uuid d3db736b-0e33-4126-b950-5488923df40e)
  )
  (wire (pts (xy 93.98 78.74) (xy 93.98 81.28))
    (stroke (width 0) (type default) (color 0 0 0 0))
    (uuid d9198b20-68ab-4f03-9039-95a74aeba0d6)
  )
  (wire (pts (xy 93.98 81.28) (xy 93.98 83.82))
    (stroke (width 0) (type default) (color 0 0 0 0))
    (uuid dbfb14d7-1f97-4dd2-9004-1d129d3b4221)
  )
  (wire (pts (xy 116.84 62.23) (xy 116.84 57.15))
    (stroke (width 0) (type default) (color 0 0 0 0))
    (uuid de5c2064-b9e1-4057-a8cc-9308019ef4d3)
  )
  (wire (pts (xy 93.98 60.96) (xy 97.79 60.96))
    (stroke (width 0) (type default) (color 0 0 0 0))
    (uuid e8e598ff-c991-433d-8dd6-c9fce2fe1eaa)
  )
  (wire (pts (xy 107.95 66.04) (xy 107.95 64.77))
    (stroke (width 0) (type default) (color 0 0 0 0))
    (uuid eac540a2-0555-4530-b9cb-9b037a65c0a7)
  )
  (wire (pts (xy 125.73 86.36) (xy 125.73 69.85))
    (stroke (width 0) (type default) (color 0 0 0 0))
    (uuid eb83440d-aa8b-4a1e-9e93-00cf0de78de9)
  )
  (wire (pts (xy 57.15 86.36) (xy 57.15 87.63))
    (stroke (width 0) (type default) (color 0 0 0 0))
    (uuid edb2db40-12f7-45b3-a514-2a1299ac0231)
  )
  (wire (pts (xy 246.38 57.15) (xy 246.38 55.88))
    (stroke (width 0) (type default) (color 0 0 0 0))
    (uuid fa574bf3-ac2e-449d-91be-bcb1e35bdaba)
  )
  (wire (pts (xy 97.79 60.96) (xy 97.79 50.8))
    (stroke (width 0) (type default) (color 0 0 0 0))
    (uuid fb126c26-740a-4781-a5dd-5ef5455e4878)
  )

  (hierarchical_label "Bat_D" (shape input) (at 242.57 57.15 180)
    (effects (font (size 1.27 1.27)) (justify right))
    (uuid 3cfddd47-0913-4692-89bb-8a69d22be5a7)
  )

  (symbol (lib_id "Device:R_US") (at 125.73 66.04 0) (unit 1)
    (in_bom yes) (on_board yes)
    (uuid 00000000-0000-0000-0000-00006098b622)
    (property "Reference" "R2" (id 0) (at 127.4572 64.8716 0)
      (effects (font (size 1.27 1.27)) (justify left))
    )
    (property "Value" "100K" (id 1) (at 127.4572 67.183 0)
      (effects (font (size 1.27 1.27)) (justify left))
    )
    (property "Footprint" "Resistor_SMD:R_0805_2012Metric" (id 2) (at 126.746 66.294 90)
      (effects (font (size 1.27 1.27)) hide)
    )
    (property "Datasheet" "~" (id 3) (at 125.73 66.04 0)
      (effects (font (size 1.27 1.27)) hide)
    )
    (pin "1" (uuid e4f6779f-248c-43d4-ac69-68bbd89522b7))
    (pin "2" (uuid 0eef7795-c4b1-449f-9b95-25e37023c5f1))
  )

  (symbol (lib_id "roket-rescue:UWT1C331MNL1GS-CAPAE1030X1000N") (at 198.12 67.31 270) (unit 1)
    (in_bom yes) (on_board yes)
    (uuid 00000000-0000-0000-0000-000060a273b2)
    (property "Reference" "C10" (id 0) (at 201.422 64.8716 90)
      (effects (font (size 1.27 1.27)) (justify left))
    )
    (property "Value" "UWT1C681MNL1GS" (id 1) (at 201.422 67.183 90)
      (effects (font (size 1.27 1.27)) (justify left))
    )
    (property "Footprint" "others:CAPAE1030X1000N" (id 2) (at 198.12 67.31 0)
      (effects (font (size 1.27 1.27)) (justify left bottom) hide)
    )
    (property "Datasheet" "" (id 3) (at 198.12 67.31 0)
      (effects (font (size 1.27 1.27)) (justify left bottom) hide)
    )
    (property "MANUFACTURER" "Nichicon" (id 4) (at 198.12 67.31 0)
      (effects (font (size 1.27 1.27)) (justify left bottom) hide)
    )
    (property "STANDARD" "IPC-7351B" (id 5) (at 198.12 67.31 0)
      (effects (font (size 1.27 1.27)) (justify left bottom) hide)
    )
    (property "PARTREV" "CAT.8100H" (id 6) (at 198.12 67.31 0)
      (effects (font (size 1.27 1.27)) (justify left bottom) hide)
    )
    (property "MAXIMUM_PACKAGE_HEIGHT" "10.8mm" (id 7) (at 198.12 67.31 0)
      (effects (font (size 1.27 1.27)) (justify left bottom) hide)
    )
    (pin "1" (uuid 767373bd-c2c9-4d54-9ac3-95d1709e757f))
    (pin "2" (uuid fec5faf5-4b19-4889-a5df-cba009403282))
  )

  (symbol (lib_id "power:GND") (at 198.12 72.39 0) (unit 1)
    (in_bom yes) (on_board yes)
    (uuid 00000000-0000-0000-0000-000060a2a7ec)
    (property "Reference" "#PWR021" (id 0) (at 198.12 78.74 0)
      (effects (font (size 1.27 1.27)) hide)
    )
    (property "Value" "GND" (id 1) (at 198.247 76.7842 0))
    (property "Footprint" "" (id 2) (at 198.12 72.39 0)
      (effects (font (size 1.27 1.27)) hide)
    )
    (property "Datasheet" "" (id 3) (at 198.12 72.39 0)
      (effects (font (size 1.27 1.27)) hide)
    )
    (pin "1" (uuid 2a8a433f-9045-4d79-bcf9-6acfe3a62ee1))
  )

  (symbol (lib_id "roket-rescue:TPS630702RNMR-TPS63070RNMT") (at 76.2 73.66 0) (unit 1)
    (in_bom yes) (on_board yes)
    (uuid 00000000-0000-0000-0000-000060aaa908)
    (property "Reference" "U2" (id 0) (at 76.2 54.102 0))
    (property "Value" "TPS630702RNMR" (id 1) (at 76.2 56.4134 0))
    (property "Footprint" "others:TPS63070RNMT" (id 2) (at 76.2 73.66 0)
      (effects (font (size 1.27 1.27)) (justify left bottom) hide)
    )
    (property "Datasheet" "" (id 3) (at 76.2 73.66 0)
      (effects (font (size 1.27 1.27)) (justify left bottom) hide)
    )
    (pin "1" (uuid 58e4d883-6dcf-4412-8ea3-a90e1a2c6cb6))
    (pin "10" (uuid 7a01c2de-ae23-41be-8df2-6452f389ef57))
    (pin "11" (uuid 4d3a7e7e-93da-421c-83b5-209a560b4c07))
    (pin "12_13" (uuid 05bc9198-4484-4ca8-a84b-a24ddfaa6244))
    (pin "14" (uuid 0da06eb7-62ae-4edc-a19d-38c77a95d643))
    (pin "15" (uuid be3e69fd-dd70-47a7-a7b1-367c3ef65e2a))
    (pin "2" (uuid e6435d88-c640-402d-b6eb-f1add5cc8cf3))
    (pin "3" (uuid ec476015-7d51-4a00-b3ed-ae1bac58710e))
    (pin "4" (uuid d520016d-f479-4060-9d51-e550cbb7b606))
    (pin "5" (uuid 6432cddb-4e39-4373-bb81-2585db655729))
    (pin "6" (uuid 5004f799-883c-49f9-920f-3434b537d57c))
    (pin "7_8" (uuid a8eafbc2-5481-482f-8c3b-d241d6f3400d))
    (pin "9" (uuid 1d7a0db0-1e34-4afd-90b9-1fa200dff340))
  )

  (symbol (lib_id "roket-rescue:XFL4020-102MEC-XFL4020-102MEC") (at 76.2 50.8 0) (unit 1)
    (in_bom yes) (on_board yes)
    (uuid 00000000-0000-0000-0000-000060aac7a2)
    (property "Reference" "L1" (id 0) (at 76.2 46.2026 0))
    (property "Value" "XFL4020-102MEC" (id 1) (at 76.2 48.514 0))
    (property "Footprint" "others:XFL4020-102MEC" (id 2) (at 76.2 50.8 0)
      (effects (font (size 1.27 1.27)) (justify left bottom) hide)
    )
    (property "Datasheet" "" (id 3) (at 76.2 50.8 0)
      (effects (font (size 1.27 1.27)) (justify left bottom) hide)
    )
    (property "DESCRIPTION" "Power inductor, shielded, 20% tol, SMT, RoHS, halogen free" (id 4) (at 76.2 50.8 0)
      (effects (font (size 1.27 1.27)) (justify left bottom) hide)
    )
    (property "MAXIMUM_PACKAGE_HEIGHT" "2.1mm" (id 5) (at 76.2 50.8 0)
      (effects (font (size 1.27 1.27)) (justify left bottom) hide)
    )
    (property "MANUFACTURER" "Coilcraft" (id 6) (at 76.2 50.8 0)
      (effects (font (size 1.27 1.27)) (justify left bottom) hide)
    )
    (property "PARTREV" "11/02/18" (id 7) (at 76.2 50.8 0)
      (effects (font (size 1.27 1.27)) (justify left bottom) hide)
    )
    (property "STANDARD" "Manufacturer Recommendations" (id 8) (at 76.2 50.8 0)
      (effects (font (size 1.27 1.27)) (justify left bottom) hide)
    )
    (pin "1" (uuid 2859a760-a315-41ce-9867-42c9328eff85))
    (pin "2" (uuid e0f4b64b-b739-484e-ba8e-428dcc3492f8))
  )

  (symbol (lib_id "roket-rescue:Cap-805_cap") (at 134.62 59.69 270) (unit 1)
    (in_bom yes) (on_board yes)
    (uuid 00000000-0000-0000-0000-000060aaf6fc)
    (property "Reference" "C2" (id 0) (at 137.2362 59.7916 90)
      (effects (font (size 1.27 1.27)) (justify left))
    )
    (property "Value" "22uF" (id 1) (at 137.2362 62.103 90)
      (effects (font (size 1.27 1.27)) (justify left))
    )
    (property "Footprint" "Capacitor_SMD:C_0805_2012Metric" (id 2) (at 134.62 59.69 0)
      (effects (font (size 1.27 1.27)) (justify left bottom) hide)
    )
    (property "Datasheet" "" (id 3) (at 134.62 59.69 0)
      (effects (font (size 1.27 1.27)) (justify left bottom) hide)
    )
    (pin "1" (uuid f35bf569-4e2c-4d1f-9729-56be15c3c55c))
    (pin "2" (uuid 260a686d-0ea4-4710-9271-42afe4aaf251))
  )

  (symbol (lib_id "Device:R_US") (at 116.84 66.04 0) (unit 1)
    (in_bom yes) (on_board yes)
    (uuid 00000000-0000-0000-0000-000060ab02a2)
    (property "Reference" "R1" (id 0) (at 118.5672 64.8716 0)
      (effects (font (size 1.27 1.27)) (justify left))
    )
    (property "Value" "680K" (id 1) (at 118.5672 67.183 0)
      (effects (font (size 1.27 1.27)) (justify left))
    )
    (property "Footprint" "Resistor_SMD:R_0805_2012Metric" (id 2) (at 117.856 66.294 90)
      (effects (font (size 1.27 1.27)) hide)
    )
    (property "Datasheet" "~" (id 3) (at 116.84 66.04 0)
      (effects (font (size 1.27 1.27)) hide)
    )
    (pin "1" (uuid 485af751-7161-4797-a297-5749fd9b4c80))
    (pin "2" (uuid 8ce6e219-be04-4bd8-bbee-59b4e4f2bbc5))
  )

  (symbol (lib_id "roket-rescue:Cap-805_cap") (at 144.78 59.69 270) (unit 1)
    (in_bom yes) (on_board yes)
    (uuid 00000000-0000-0000-0000-000060ab0a25)
    (property "Reference" "C3" (id 0) (at 147.3962 59.7916 90)
      (effects (font (size 1.27 1.27)) (justify left))
    )
    (property "Value" "22uF" (id 1) (at 147.3962 62.103 90)
      (effects (font (size 1.27 1.27)) (justify left))
    )
    (property "Footprint" "Capacitor_SMD:C_0805_2012Metric" (id 2) (at 144.78 59.69 0)
      (effects (font (size 1.27 1.27)) (justify left bottom) hide)
    )
    (property "Datasheet" "" (id 3) (at 144.78 59.69 0)
      (effects (font (size 1.27 1.27)) (justify left bottom) hide)
    )
    (pin "1" (uuid 94062c5c-0205-48cd-835d-0cc87df473b9))
    (pin "2" (uuid d064e49a-99d5-44e3-81f6-bd8a4b4642cf))
  )

  (symbol (lib_id "roket-rescue:Cap-805_cap") (at 154.94 59.69 270) (unit 1)
    (in_bom yes) (on_board yes)
    (uuid 00000000-0000-0000-0000-000060ab0c66)
    (property "Reference" "C4" (id 0) (at 157.5562 59.7916 90)
      (effects (font (size 1.27 1.27)) (justify left))
    )
    (property "Value" "22uF" (id 1) (at 157.5562 62.103 90)
      (effects (font (size 1.27 1.27)) (justify left))
    )
    (property "Footprint" "Capacitor_SMD:C_0805_2012Metric" (id 2) (at 154.94 59.69 0)
      (effects (font (size 1.27 1.27)) (justify left bottom) hide)
    )
    (property "Datasheet" "" (id 3) (at 154.94 59.69 0)
      (effects (font (size 1.27 1.27)) (justify left bottom) hide)
    )
    (pin "1" (uuid 8bf413b6-9d55-401c-be8b-c84fc1805ca1))
    (pin "2" (uuid 2f5793a4-784d-4354-a923-086ce6f236aa))
  )

  (symbol (lib_id "roket-rescue:Cap-805_cap") (at 107.95 59.69 270) (unit 1)
    (in_bom yes) (on_board yes)
    (uuid 00000000-0000-0000-0000-000060ab1ec5)
    (property "Reference" "C1" (id 0) (at 110.5662 59.7916 90)
      (effects (font (size 1.27 1.27)) (justify left))
    )
    (property "Value" "10uF" (id 1) (at 110.5662 62.103 90)
      (effects (font (size 1.27 1.27)) (justify left))
    )
    (property "Footprint" "Capacitor_SMD:C_0805_2012Metric" (id 2) (at 107.95 59.69 0)
      (effects (font (size 1.27 1.27)) (justify left bottom) hide)
    )
    (property "Datasheet" "" (id 3) (at 107.95 59.69 0)
      (effects (font (size 1.27 1.27)) (justify left bottom) hide)
    )
    (pin "1" (uuid fddf5303-69f1-4667-b95d-772b9bae08fb))
    (pin "2" (uuid 0e9e872a-09bb-4a3c-a9a2-0aed33dd79a8))
  )

  (symbol (lib_id "roket-rescue:Cap-805_cap") (at 33.02 63.5 270) (unit 1)
    (in_bom yes) (on_board yes)
    (uuid 00000000-0000-0000-0000-000060ab2118)
    (property "Reference" "C5" (id 0) (at 35.6362 63.6016 90)
      (effects (font (size 1.27 1.27)) (justify left))
    )
    (property "Value" "22uF" (id 1) (at 35.6362 65.913 90)
      (effects (font (size 1.27 1.27)) (justify left))
    )
    (property "Footprint" "Capacitor_SMD:C_0805_2012Metric" (id 2) (at 33.02 63.5 0)
      (effects (font (size 1.27 1.27)) (justify left bottom) hide)
    )
    (property "Datasheet" "" (id 3) (at 33.02 63.5 0)
      (effects (font (size 1.27 1.27)) (justify left bottom) hide)
    )
    (pin "1" (uuid 3c31d36a-21da-4b47-9e57-e06ceacbf03f))
    (pin "2" (uuid 536926ce-7bdc-4082-bee9-51b63edb5c65))
  )

  (symbol (lib_id "roket-rescue:Cap-805_cap") (at 45.72 63.5 270) (unit 1)
    (in_bom yes) (on_board yes)
    (uuid 00000000-0000-0000-0000-000060ab236d)
    (property "Reference" "C6" (id 0) (at 48.3362 63.6016 90)
      (effects (font (size 1.27 1.27)) (justify left))
    )
    (property "Value" "10uF" (id 1) (at 48.3362 65.913 90)
      (effects (font (size 1.27 1.27)) (justify left))
    )
    (property "Footprint" "Capacitor_SMD:C_0805_2012Metric" (id 2) (at 45.72 63.5 0)
      (effects (font (size 1.27 1.27)) (justify left bottom) hide)
    )
    (property "Datasheet" "" (id 3) (at 45.72 63.5 0)
      (effects (font (size 1.27 1.27)) (justify left bottom) hide)
    )
    (pin "1" (uuid 928981d5-a391-4196-8a01-142037e675d6))
    (pin "2" (uuid 521023d4-5237-425b-b962-2d96f6824a3b))
  )

  (symbol (lib_id "roket-rescue:Cap-805_cap") (at 57.15 90.17 270) (unit 1)
    (in_bom yes) (on_board yes)
    (uuid 00000000-0000-0000-0000-000060ab24e7)
    (property "Reference" "C9" (id 0) (at 59.7662 90.2716 90)
      (effects (font (size 1.27 1.27)) (justify left))
    )
    (property "Value" "0.1uF" (id 1) (at 59.7662 92.583 90)
      (effects (font (size 1.27 1.27)) (justify left))
    )
    (property "Footprint" "Capacitor_SMD:C_0805_2012Metric" (id 2) (at 57.15 90.17 0)
      (effects (font (size 1.27 1.27)) (justify left bottom) hide)
    )
    (property "Datasheet" "" (id 3) (at 57.15 90.17 0)
      (effects (font (size 1.27 1.27)) (justify left bottom) hide)
    )
    (pin "1" (uuid d1bada52-a9e9-4a38-8119-ad83eb790d5d))
    (pin "2" (uuid 0a13916f-d137-4daa-bd1b-f90fe53ebdda))
  )

  (symbol (lib_id "Device:R_US") (at 116.84 74.93 0) (unit 1)
    (in_bom yes) (on_board yes)
    (uuid 00000000-0000-0000-0000-000060ab2d62)
    (property "Reference" "R3" (id 0) (at 118.5672 73.7616 0)
      (effects (font (size 1.27 1.27)) (justify left))
    )
    (property "Value" "130K" (id 1) (at 118.5672 76.073 0)
      (effects (font (size 1.27 1.27)) (justify left))
    )
    (property "Footprint" "Resistor_SMD:R_0805_2012Metric" (id 2) (at 117.856 75.184 90)
      (effects (font (size 1.27 1.27)) hide)
    )
    (property "Datasheet" "~" (id 3) (at 116.84 74.93 0)
      (effects (font (size 1.27 1.27)) hide)
    )
    (pin "1" (uuid 029f7d78-106e-4d1b-bd23-b89a4eb11af9))
    (pin "2" (uuid 4f77388d-b9d0-4512-8c08-99b0c79a19a3))
  )

  (symbol (lib_id "Device:R_US") (at 41.91 77.47 0) (unit 1)
    (in_bom yes) (on_board yes)
    (uuid 00000000-0000-0000-0000-000060ab2fab)
    (property "Reference" "R4" (id 0) (at 43.6372 76.3016 0)
      (effects (font (size 1.27 1.27)) (justify left))
    )
    (property "Value" "10K" (id 1) (at 43.6372 78.613 0)
      (effects (font (size 1.27 1.27)) (justify left))
    )
    (property "Footprint" "Resistor_SMD:R_0805_2012Metric" (id 2) (at 42.926 77.724 90)
      (effects (font (size 1.27 1.27)) hide)
    )
    (property "Datasheet" "~" (id 3) (at 41.91 77.47 0)
      (effects (font (size 1.27 1.27)) hide)
    )
    (pin "1" (uuid 45d542e0-e750-4bc8-b0fb-677587152902))
    (pin "2" (uuid baecefa6-fc3b-4552-ad2a-37ff533a09fe))
  )

  (symbol (lib_id "power:GND") (at 107.95 66.04 0) (unit 1)
    (in_bom yes) (on_board yes)
    (uuid 00000000-0000-0000-0000-000060ab4052)
    (property "Reference" "#PWR03" (id 0) (at 107.95 72.39 0)
      (effects (font (size 1.27 1.27)) hide)
    )
    (property "Value" "GND" (id 1) (at 108.077 70.4342 0))
    (property "Footprint" "" (id 2) (at 107.95 66.04 0)
      (effects (font (size 1.27 1.27)) hide)
    )
    (property "Datasheet" "" (id 3) (at 107.95 66.04 0)
      (effects (font (size 1.27 1.27)) hide)
    )
    (pin "1" (uuid 5fbd2b7a-318f-4176-9a01-89b948a85e79))
  )

  (symbol (lib_id "power:GND") (at 134.62 66.04 0) (unit 1)
    (in_bom yes) (on_board yes)
    (uuid 00000000-0000-0000-0000-000060ab4cda)
    (property "Reference" "#PWR04" (id 0) (at 134.62 72.39 0)
      (effects (font (size 1.27 1.27)) hide)
    )
    (property "Value" "GND" (id 1) (at 134.747 70.4342 0))
    (property "Footprint" "" (id 2) (at 134.62 66.04 0)
      (effects (font (size 1.27 1.27)) hide)
    )
    (property "Datasheet" "" (id 3) (at 134.62 66.04 0)
      (effects (font (size 1.27 1.27)) hide)
    )
    (pin "1" (uuid 46b26aa9-9512-4d97-9f70-ad6827638ea7))
  )

  (symbol (lib_id "power:GND") (at 144.78 66.04 0) (unit 1)
    (in_bom yes) (on_board yes)
    (uuid 00000000-0000-0000-0000-000060ab4dd5)
    (property "Reference" "#PWR05" (id 0) (at 144.78 72.39 0)
      (effects (font (size 1.27 1.27)) hide)
    )
    (property "Value" "GND" (id 1) (at 144.907 70.4342 0))
    (property "Footprint" "" (id 2) (at 144.78 66.04 0)
      (effects (font (size 1.27 1.27)) hide)
    )
    (property "Datasheet" "" (id 3) (at 144.78 66.04 0)
      (effects (font (size 1.27 1.27)) hide)
    )
    (pin "1" (uuid 1075c308-b5bb-44bc-847a-178364e5c8cd))
  )

  (symbol (lib_id "power:GND") (at 154.94 66.04 0) (unit 1)
    (in_bom yes) (on_board yes)
    (uuid 00000000-0000-0000-0000-000060ab50cb)
    (property "Reference" "#PWR06" (id 0) (at 154.94 72.39 0)
      (effects (font (size 1.27 1.27)) hide)
    )
    (property "Value" "GND" (id 1) (at 155.067 70.4342 0))
    (property "Footprint" "" (id 2) (at 154.94 66.04 0)
      (effects (font (size 1.27 1.27)) hide)
    )
    (property "Datasheet" "" (id 3) (at 154.94 66.04 0)
      (effects (font (size 1.27 1.27)) hide)
    )
    (pin "1" (uuid b963fd24-0780-4680-8614-fe86ef253063))
  )

  (symbol (lib_id "power:GND") (at 116.84 80.01 0) (unit 1)
    (in_bom yes) (on_board yes)
    (uuid 00000000-0000-0000-0000-000060ab5318)
    (property "Reference" "#PWR014" (id 0) (at 116.84 86.36 0)
      (effects (font (size 1.27 1.27)) hide)
    )
    (property "Value" "GND" (id 1) (at 116.967 84.4042 0))
    (property "Footprint" "" (id 2) (at 116.84 80.01 0)
      (effects (font (size 1.27 1.27)) hide)
    )
    (property "Datasheet" "" (id 3) (at 116.84 80.01 0)
      (effects (font (size 1.27 1.27)) hide)
    )
    (pin "1" (uuid 59cf90d3-1553-4c0b-a6ab-1d9af6fe33e1))
  )

  (symbol (lib_id "power:GND") (at 57.15 96.52 0) (unit 1)
    (in_bom yes) (on_board yes)
    (uuid 00000000-0000-0000-0000-000060ab54f3)
    (property "Reference" "#PWR017" (id 0) (at 57.15 102.87 0)
      (effects (font (size 1.27 1.27)) hide)
    )
    (property "Value" "GND" (id 1) (at 57.277 100.9142 0))
    (property "Footprint" "" (id 2) (at 57.15 96.52 0)
      (effects (font (size 1.27 1.27)) hide)
    )
    (property "Datasheet" "" (id 3) (at 57.15 96.52 0)
      (effects (font (size 1.27 1.27)) hide)
    )
    (pin "1" (uuid 596a0134-78fe-4dbe-b5ad-ac5040289e55))
  )

  (symbol (lib_id "power:GND") (at 45.72 69.85 0) (unit 1)
    (in_bom yes) (on_board yes)
    (uuid 00000000-0000-0000-0000-000060ab5689)
    (property "Reference" "#PWR010" (id 0) (at 45.72 76.2 0)
      (effects (font (size 1.27 1.27)) hide)
    )
    (property "Value" "GND" (id 1) (at 45.847 74.2442 0))
    (property "Footprint" "" (id 2) (at 45.72 69.85 0)
      (effects (font (size 1.27 1.27)) hide)
    )
    (property "Datasheet" "" (id 3) (at 45.72 69.85 0)
      (effects (font (size 1.27 1.27)) hide)
    )
    (pin "1" (uuid 60d26db4-b138-46b0-b681-4276ebd1d4cf))
  )

  (symbol (lib_id "power:GND") (at 33.02 69.85 0) (unit 1)
    (in_bom yes) (on_board yes)
    (uuid 00000000-0000-0000-0000-000060ab576e)
    (property "Reference" "#PWR09" (id 0) (at 33.02 76.2 0)
      (effects (font (size 1.27 1.27)) hide)
    )
    (property "Value" "GND" (id 1) (at 33.147 74.2442 0))
    (property "Footprint" "" (id 2) (at 33.02 69.85 0)
      (effects (font (size 1.27 1.27)) hide)
    )
    (property "Datasheet" "" (id 3) (at 33.02 69.85 0)
      (effects (font (size 1.27 1.27)) hide)
    )
    (pin "1" (uuid 97d54307-1292-40cc-bd36-193e41046d77))
  )

  (symbol (lib_id "power:GND") (at 93.98 87.63 0) (unit 1)
    (in_bom yes) (on_board yes)
    (uuid 00000000-0000-0000-0000-000060ab732e)
    (property "Reference" "#PWR015" (id 0) (at 93.98 93.98 0)
      (effects (font (size 1.27 1.27)) hide)
    )
    (property "Value" "GND" (id 1) (at 94.107 92.0242 0))
    (property "Footprint" "" (id 2) (at 93.98 87.63 0)
      (effects (font (size 1.27 1.27)) hide)
    )
    (property "Datasheet" "" (id 3) (at 93.98 87.63 0)
      (effects (font (size 1.27 1.27)) hide)
    )
    (pin "1" (uuid 5343ca9c-d9ff-43c8-9a8d-12552e1e3e99))
  )

  (symbol (lib_id "power:VCC") (at 33.02 59.69 0) (unit 1)
    (in_bom yes) (on_board yes)
    (uuid 00000000-0000-0000-0000-000060abd311)
    (property "Reference" "#PWR02" (id 0) (at 33.02 63.5 0)
      (effects (font (size 1.27 1.27)) hide)
    )
    (property "Value" "VCC" (id 1) (at 33.401 55.2958 0))
    (property "Footprint" "" (id 2) (at 33.02 59.69 0)
      (effects (font (size 1.27 1.27)) hide)
    )
    (property "Datasheet" "" (id 3) (at 33.02 59.69 0)
      (effects (font (size 1.27 1.27)) hide)
    )
    (pin "1" (uuid e99803fe-1de8-4281-93d5-b5e7a6cb274c))
  )

  (symbol (lib_id "power:VCC") (at 210.82 57.15 0) (unit 1)
    (in_bom yes) (on_board yes)
    (uuid 00000000-0000-0000-0000-000060abe055)
    (property "Reference" "#PWR020" (id 0) (at 210.82 60.96 0)
      (effects (font (size 1.27 1.27)) hide)
    )
    (property "Value" "VCC" (id 1) (at 211.201 52.7558 0))
    (property "Footprint" "" (id 2) (at 210.82 57.15 0)
      (effects (font (size 1.27 1.27)) hide)
    )
    (property "Datasheet" "" (id 3) (at 210.82 57.15 0)
      (effects (font (size 1.27 1.27)) hide)
    )
    (pin "1" (uuid 628e4825-a201-48a3-bbe8-55f8491fa40d))
  )

  (symbol (lib_id "power:+BATT") (at 198.12 57.15 0) (unit 1)
    (in_bom yes) (on_board yes)
    (uuid 00000000-0000-0000-0000-000060abe964)
    (property "Reference" "#PWR019" (id 0) (at 198.12 60.96 0)
      (effects (font (size 1.27 1.27)) hide)
    )
    (property "Value" "+BATT" (id 1) (at 198.501 52.7558 0))
    (property "Footprint" "" (id 2) (at 198.12 57.15 0)
      (effects (font (size 1.27 1.27)) hide)
    )
    (property "Datasheet" "" (id 3) (at 198.12 57.15 0)
      (effects (font (size 1.27 1.27)) hide)
    )
    (pin "1" (uuid 158caea1-8be4-4d68-b695-e535f7813c3b))
  )

  (symbol (lib_id "Device:R_US") (at 246.38 52.07 0) (unit 1)
    (in_bom yes) (on_board yes)
    (uuid 00000000-0000-0000-0000-000060aca012)
    (property "Reference" "R5" (id 0) (at 248.1072 50.9016 0)
      (effects (font (size 1.27 1.27)) (justify left))
    )
    (property "Value" "560K" (id 1) (at 248.1072 53.213 0)
      (effects (font (size 1.27 1.27)) (justify left))
    )
    (property "Footprint" "Resistor_SMD:R_0805_2012Metric" (id 2) (at 247.396 52.324 90)
      (effects (font (size 1.27 1.27)) hide)
    )
    (property "Datasheet" "~" (id 3) (at 246.38 52.07 0)
      (effects (font (size 1.27 1.27)) hide)
    )
    (pin "1" (uuid 9281d385-0f65-46e8-bffe-3075b01a28d7))
    (pin "2" (uuid 960a3aba-ab57-472b-899c-c5ab989cb84a))
  )

  (symbol (lib_id "Device:R_US") (at 246.38 62.23 0) (unit 1)
    (in_bom yes) (on_board yes)
    (uuid 00000000-0000-0000-0000-000060aca018)
    (property "Reference" "R6" (id 0) (at 248.1072 61.0616 0)
      (effects (font (size 1.27 1.27)) (justify left))
    )
    (property "Value" "100K" (id 1) (at 248.1072 63.373 0)
      (effects (font (size 1.27 1.27)) (justify left))
    )
    (property "Footprint" "Resistor_SMD:R_0805_2012Metric" (id 2) (at 247.396 62.484 90)
      (effects (font (size 1.27 1.27)) hide)
    )
    (property "Datasheet" "~" (id 3) (at 246.38 62.23 0)
      (effects (font (size 1.27 1.27)) hide)
    )
    (pin "1" (uuid f352bf7e-78ab-4a15-b4ad-143e63eb07cf))
    (pin "2" (uuid 73020f4e-0646-42c6-9c58-c614b043f9c4))
  )

  (symbol (lib_id "power:GND") (at 246.38 67.31 0) (unit 1)
    (in_bom yes) (on_board yes)
    (uuid 00000000-0000-0000-0000-000060aca01e)
    (property "Reference" "#PWR018" (id 0) (at 246.38 73.66 0)
      (effects (font (size 1.27 1.27)) hide)
    )
    (property "Value" "GND" (id 1) (at 246.507 71.7042 0))
    (property "Footprint" "" (id 2) (at 246.38 67.31 0)
      (effects (font (size 1.27 1.27)) hide)
    )
    (property "Datasheet" "" (id 3) (at 246.38 67.31 0)
      (effects (font (size 1.27 1.27)) hide)
    )
    (pin "1" (uuid 5564edc0-ec29-4de6-b483-87723dea0d05))
  )

  (symbol (lib_id "power:+BATT") (at 246.38 45.72 0) (unit 1)
    (in_bom yes) (on_board yes)
    (uuid 00000000-0000-0000-0000-000060acabd1)
    (property "Reference" "#PWR016" (id 0) (at 246.38 49.53 0)
      (effects (font (size 1.27 1.27)) hide)
    )
    (property "Value" "+BATT" (id 1) (at 246.761 41.3258 0))
    (property "Footprint" "" (id 2) (at 246.38 45.72 0)
      (effects (font (size 1.27 1.27)) hide)
    )
    (property "Datasheet" "" (id 3) (at 246.38 45.72 0)
      (effects (font (size 1.27 1.27)) hide)
    )
    (pin "1" (uuid 33933f80-a932-459a-b226-7aa0ba918281))
  )

  (symbol (lib_id "dk_Diodes-Rectifiers-Single:SS14") (at 205.74 58.42 180) (unit 1)
    (in_bom yes) (on_board yes) (fields_autoplaced)
    (uuid 05937dbb-75d3-4538-8605-04de4b581ef0)
    (property "Reference" "D1" (id 0) (at 204.47 53.3105 0))
    (property "Value" "SS14" (id 1) (at 204.47 56.0856 0))
    (property "Footprint" "digikey-footprints:DO-214AC" (id 2) (at 200.66 63.5 0)
      (effects (font (size 1.524 1.524)) (justify left) hide)
    )
    (property "Datasheet" "https://www.onsemi.com/pub/Collateral/SS19-D.PDF" (id 3) (at 200.66 66.04 0)
      (effects (font (size 1.524 1.524)) (justify left) hide)
    )
    (property "Digi-Key_PN" "SS14CT-ND" (id 4) (at 200.66 68.58 0)
      (effects (font (size 1.524 1.524)) (justify left) hide)
    )
    (property "MPN" "SS14" (id 5) (at 200.66 71.12 0)
      (effects (font (size 1.524 1.524)) (justify left) hide)
    )
    (property "Category" "Discrete Semiconductor Products" (id 6) (at 200.66 73.66 0)
      (effects (font (size 1.524 1.524)) (justify left) hide)
    )
    (property "Family" "Diodes - Rectifiers - Single" (id 7) (at 200.66 76.2 0)
      (effects (font (size 1.524 1.524)) (justify left) hide)
    )
    (property "DK_Datasheet_Link" "https://www.onsemi.com/pub/Collateral/SS19-D.PDF" (id 8) (at 200.66 78.74 0)
      (effects (font (size 1.524 1.524)) (justify left) hide)
    )
    (property "DK_Detail_Page" "/product-detail/en/on-semiconductor/SS14/SS14CT-ND/965729" (id 9) (at 200.66 81.28 0)
      (effects (font (size 1.524 1.524)) (justify left) hide)
    )
    (property "Description" "DIODE SCHOTTKY 40V 1A SMA" (id 10) (at 200.66 83.82 0)
      (effects (font (size 1.524 1.524)) (justify left) hide)
    )
    (property "Manufacturer" "ON Semiconductor" (id 11) (at 200.66 86.36 0)
      (effects (font (size 1.524 1.524)) (justify left) hide)
    )
    (property "Status" "Active" (id 12) (at 200.66 88.9 0)
      (effects (font (size 1.524 1.524)) (justify left) hide)
    )
    (pin "A" (uuid c0385f19-0830-4f7a-9270-0d8a7f828c45))
    (pin "K" (uuid 5187e43c-dd18-44bb-8324-2712ffff40ea))
  )

  (symbol (lib_id "power:+3.3V") (at 154.94 54.61 0) (unit 1)
    (in_bom yes) (on_board yes)
    (uuid 117e7080-234f-49cb-bea2-1e181ff0e17a)
    (property "Reference" "#PWR0102" (id 0) (at 154.94 58.42 0)
      (effects (font (size 1.27 1.27)) hide)
    )
    (property "Value" "+3.3V" (id 1) (at 155.321 50.2158 0))
    (property "Footprint" "" (id 2) (at 154.94 54.61 0)
      (effects (font (size 1.27 1.27)) hide)
    )
    (property "Datasheet" "" (id 3) (at 154.94 54.61 0)
      (effects (font (size 1.27 1.27)) hide)
    )
    (pin "1" (uuid 7b99f74e-8289-47ea-9158-50583fc655b8))
  )
)
